FI_minus_baseline	Ccorr_nM	cell	class	pass
-205.24	0.00	WT	nuc	1
68.09	0.00	WT	cyt	1
70.27	0.00	WT	nuc	1
40.60	0.00	WT	cyt	1
-140.29	0.00	WT	nuc	1
-160.18	0.00	WT	cyt	1
-58.22	0.00	WT	nuc	1
150.54	0.00	WT	cyt	1
59.92	0.00	WT	nuc	1
-23.82	0.00	WT	cyt	1
-192.38	0.00	WT	nuc	1
390.67	0.00	WT	cyt	1
10508.27	131.48	mFP	nuc	1
9113.36	384.35	mFP	cyt	0
28264.46	1610.85	mFP	nuc	0
21213.34	1417.62	mFP	cyt	1
11342.34	554.13	mFP	nuc	1
10206.45	436.93	mFP	cyt	1
10508.27	131.09	mFP	nuc	1
9113.36	143.13	mFP	cyt	1
2755.48	110.84	mFP	nuc	1
930.60	52.00	mFP	cyt	0
2455.81	110.93	mFP	nuc	1
2405.34	106.59	mFP	cyt	1
3345.49	161.58	mFP	nuc	1
4205.90	192.43	mFP	cyt	1
4735.54	173.47	mFP	nuc	1
1875.27	48.90	mFP	cyt	0
18037.09	965.58	mFP	nuc	1
17335.17	765.59	mFP	cyt	1
33482.80	1715.80	mFP	nuc	1
29195.12	1601.22	mFP	cyt	1
12030.57	552.11	mFP	nuc	1
9303.61	474.79	mFP	cyt	0
25846.85	1743.91	mFP	nuc	1
27755.98	1448.46	mFP	cyt	1
8479.72	532.07	mFP	nuc	1
8236.39	450.31	mFP	cyt	1
13767.55	765.28	mFP	nuc	1
23478.59	3255.80	mFP	cyt	0
75.43	11.56	mFP	nuc	0
218.01	0.73	mFP	cyt	0
25.93	3486.72	mFP	nuc	0
123.38	4.57	mFP	cyt	0
33943.60	1615.37	mFP	nuc	1
24339.55	1014.06	mFP	cyt	0
7312.76	402.46	mFP	nuc	1
6901.81	344.73	mFP	cyt	1
19346.92	1166.91	mFP	nuc	1
20194.30	1164.66	mFP	cyt	0
21959.85	1282.38	mFP	nuc	1
20146.20	814.17	mFP	cyt	0
3467.77	130.84	POI	nuc	1
3220.74	140.62	POI	nuc	1
4946.40	197.13	POI	nuc	1
4408.35	203.82	POI	cyt	1
3920.32	208.24	POI	cyt	1
784.85	50.73	POI	cyt	0
6050.15	190.87	POI	nuc	0
4510.06	206.00	POI	nuc	1
5364.36	204.64	POI	nuc	1
4453.66	217.60	POI	cyt	1
2683.18	70.61	POI	cyt	0
4973.77	182.03	POI	cyt	0
6520.44	300.73	POI	nuc	1
4941.94	286.07	POI	nuc	1
6016.91	274.54	POI	nuc	1
4164.87	252.96	POI	cyt	1
6882.41	302.27	POI	cyt	1
6236.44	276.26	POI	cyt	1
5909.46	262.56	POI	nuc	1
4707.62	149.66	POI	nuc	1
5636.67	234.00	POI	nuc	1
4405.22	219.88	POI	cyt	1
900.50	2.50	POI	cyt	0
4438.54	226.76	POI	cyt	1
5951.77	227.00	POI	nuc	1
4380.08	220.75	POI	nuc	1
5236.94	232.28	POI	nuc	1
2290.88	194.90	POI	cyt	1
4257.15	155.77	POI	cyt	1
2320.08	185.86	POI	cyt	0
4741.28	222.44	POI	nuc	1
5453.74	224.54	POI	nuc	1
5110.92	170.29	POI	nuc	1
3193.72	110.11	POI	cyt	0
4603.54	185.53	POI	cyt	1
2545.83	174.28	POI	cyt	1
5989.45	251.91	POI	nuc	1
4614.61	225.85	POI	nuc	1
7254.32	240.24	POI	nuc	1
3093.33	222.77	POI	cyt	1
3414.54	134.42	POI	cyt	0
6065.67	202.33	POI	cyt	1
4800.09	251.83	POI	nuc	1
5249.08	246.04	POI	nuc	1
4893.20	248.65	POI	nuc	1
884.20	38.66	POI	cyt	0
3928.46	230.19	POI	cyt	1
5193.48	194.31	POI	cyt	0
5847.27	243.61	POI	nuc	1
2853.51	108.70	POI	nuc	1
5597.85	232.60	POI	nuc	1
3055.60	157.89	POI	cyt	0
2725.98	559.35	POI	cyt	0
3631.09	185.47	POI	cyt	1
