General								Correlation								Corrections																																										Correlation fitting
No	File name	Full path	Format	Clock	Duration	Channel mode	Annotation	Channel mode	Selection	1st	2nd	Frequency	Eval frequency	Mode	Detrend frequency	Offset Ch1	Amplitude Ch1	Rate Ch1	Offset Ch2	Amplitude Ch2	Rate Ch2	Xtalk Ch1	Xtalk Ch2	Labels Ch1	Labels Ch2	Interval1 1st	Interval1 2nd	Interval1 Ch1	Interval1 Ch2	Interval2 1st	Interval2 2nd	Interval2 Ch1	Interval2 Ch2	Bleaching Ch1	Bleaching Ch2	Bleaching Cross	BG Ch1	BG Ch2	BG Cross	Xtalk Ch1	Xtalk Ch2	Xtalk Cross	Total Ch1	Total Ch2	Total Cross	G0ave Ch1	G0std Ch1	G0ave Ch2	G0std Ch2	G0ave Cross	G0std Cross	CPMave Ch1	CPMstd Ch1	CPMave Ch2	CPMstd Ch2	CPMave Cross	CPMstd Cross	Model no	Model name	Mode	1st	2nd	Chi sq Ch1	R sq adj Ch1	Chi sq Ch2	R sq adj Ch2	Chi sq Cross	R sq adj Cross	P01 name	P01 value Ch1	P01 value Ch2	P01 value Cross	P02 name	P02 value Ch1	P02 value Ch2	P02 value Cross	P03 name	P03 value Ch1	P03 value Ch2	P03 value Cross	P04 name	P04 value Ch1	P04 value Ch2	P04 value Cross	P05 name	P05 value Ch1	P05 value Ch2	P05 value Cross	P06 name	P06 value Ch1	P06 value Ch2	P06 value Cross	P07 name	P07 value Ch1	P07 value Ch2	P07 value Cross	P08 name	P08 value Ch1	P08 value Ch2	P08 value Cross	P09 name	P09 value Ch1	P09 value Ch2	P09 value Cross	P10 name	P10 value Ch1	P10 value Ch2	P10 value Cross	P11 name	P11 value Ch1	P11 value Ch2	P11 value Cross	P12 name	P12 value Ch1	P12 value Ch2	P12 value Cross	P13 name	P13 value Ch1	P13 value Ch2	P13 value Cross	P14 name	P14 value Ch1	P14 value Ch2	P14 value Cross	P15 name	P15 value Ch1	P15 value Ch2	P15 value Cross	P16 name	P16 value Ch1	P16 value Ch2	P16 value Cross	P17 name	P17 value Ch1	P17 value Ch2	P17 value Cross	P18 name	P18 value Ch1	P18 value Ch2	P18 value Cross	P19 name	P19 value Ch1	P19 value Ch2	P19 value Cross	P20 name	P20 value Ch1	P20 value Ch2	P20 value Cross	P21 name	P21 value Ch1	P21 value Ch2	P21 value Cross	P22 name	P22 value Ch1	P22 value Ch2	P22 value Cross	P23 name	P23 value Ch1	P23 value Ch2	P23 value Cross	P24 name	P24 value Ch1	P24 value Ch2	P24 value Cross	P25 name	P25 value Ch1	P25 value Ch2	P25 value Cross
00000	0001_R1_P1_K1_Ch2.zen	C:\Users\toni\Dropbox\NPCMaturation\matlabcode\FCS\example_data\Protein\0001_R1_P1_K1_Ch2.zen	FA/ISS	20000.000	30.000	1	 	1	0	0.000	29.940	100000	2000	Scale	0.000	1.720	0.000	0.010	0.000	0.000	0.010	0.000	0.000	1	1	0.000	1.000	488.160	0.000	0.000	1.000	488.160	0.000	1.0072	1.0000	1.0000	0.9930	1.0000	1.0000	1.0000	1.0000	1.0000	1.0001	1.0000	1.0000	3.4939E-3	4.2527E-4	0.0000E+0	0.0000E+0	0.0000E+0	0.0000E+0	1.7050E+0	2.0359E-1	0.0000E+0	0.0000E+0	0.0000E+0	0.0000E+0	0	two-component anomalous diffusion with fluorescent protein-like blinking	1	0	0	6.8241E-2	9.9709E-1	0.0000E+0	0.0000E+0	0.0000E+0	0.0000E+0	N	2.6869E+2	1.0000E+1	1.0000E+1	thetaT	0.0000E+0	2.0000E-1	2.0000E-1	tauT	1.0000E+2	1.0000E+2	1.0000E+2	f1	1.0000E+0	1.0000E+0	1.0000E+0	tauD1	2.7653E+2	5.0000E+2	5.0000E+2	alpha1	9.5274E-1	1.0000E+0	1.0000E+0	tauD2	5.0000E+3	5.0000E+3	5.0000E+3	alpha2	1.0000E+0	1.0000E+0	1.0000E+0	kappa	3.5000E+0	5.5000E+0	5.5000E+0	offset	0.0000E+0	0.0000E+0	0.0000E+0		0.0000E+0	0.0000E+0	0.0000E+0		0.0000E+0	0.0000E+0	0.0000E+0		0.0000E+0	0.0000E+0	0.0000E+0		0.0000E+0	0.0000E+0	0.0000E+0		0.0000E+0	0.0000E+0	0.0000E+0		0.0000E+0	0.0000E+0	0.0000E+0		0.0000E+0	0.0000E+0	0.0000E+0		0.0000E+0	0.0000E+0	0.0000E+0		0.0000E+0	0.0000E+0	0.0000E+0		0.0000E+0	0.0000E+0	0.0000E+0		0.0000E+0	0.0000E+0	0.0000E+0		0.0000E+0	0.0000E+0	0.0000E+0		0.0000E+0	0.0000E+0	0.0000E+0		0.0000E+0	0.0000E+0	0.0000E+0		0.0000E+0	0.0000E+0	0.0000E+0
00001	0001_R1_P2_K1_Ch2.zen	C:\Users\toni\Dropbox\NPCMaturation\matlabcode\FCS\example_data\Protein\0001_R1_P2_K1_Ch2.zen	FA/ISS	20000.000	30.000	1	 	1	0	0.000	29.940	100000	2000	Scale	0.000	1.720	0.000	0.010	0.000	0.000	0.010	0.000	0.000	1	1	0.000	1.000	495.126	0.000	0.000	1.000	495.126	0.000	0.9978	1.0000	1.0000	0.9931	1.0000	1.0000	1.0000	1.0000	1.0000	0.9908	1.0000	1.0000	3.8789E-3	7.6767E-4	0.0000E+0	0.0000E+0	0.0000E+0	0.0000E+0	1.9172E+0	3.5296E-1	0.0000E+0	0.0000E+0	0.0000E+0	0.0000E+0	0	two-component anomalous diffusion with fluorescent protein-like blinking	1	0	0	5.6647E-2	9.9307E-1	0.0000E+0	0.0000E+0	0.0000E+0	0.0000E+0	N	2.5433E+2	1.0000E+1	1.0000E+1	thetaT	0.0000E+0	2.0000E-1	2.0000E-1	tauT	1.0000E+2	1.0000E+2	1.0000E+2	f1	1.0000E+0	1.0000E+0	1.0000E+0	tauD1	2.2716E+2	5.0000E+2	5.0000E+2	alpha1	8.7227E-1	1.0000E+0	1.0000E+0	tauD2	5.0000E+3	5.0000E+3	5.0000E+3	alpha2	1.0000E+0	1.0000E+0	1.0000E+0	kappa	3.5000E+0	5.5000E+0	5.5000E+0	offset	0.0000E+0	0.0000E+0	0.0000E+0		0.0000E+0	0.0000E+0	0.0000E+0		0.0000E+0	0.0000E+0	0.0000E+0		0.0000E+0	0.0000E+0	0.0000E+0		0.0000E+0	0.0000E+0	0.0000E+0		0.0000E+0	0.0000E+0	0.0000E+0		0.0000E+0	0.0000E+0	0.0000E+0		0.0000E+0	0.0000E+0	0.0000E+0		0.0000E+0	0.0000E+0	0.0000E+0		0.0000E+0	0.0000E+0	0.0000E+0		0.0000E+0	0.0000E+0	0.0000E+0		0.0000E+0	0.0000E+0	0.0000E+0		0.0000E+0	0.0000E+0	0.0000E+0		0.0000E+0	0.0000E+0	0.0000E+0		0.0000E+0	0.0000E+0	0.0000E+0		0.0000E+0	0.0000E+0	0.0000E+0
