General								Correlation								Corrections																																										Correlation fitting																																																																																																														
No	File name	Full path	Format	Clock	Duration	Channel mode	Annotation	Channel mode	Selection	1st	2nd	Frequency	Eval frequency	Mode	Detrend frequency	Offset Ch1	Amplitude Ch1	Rate Ch1	Offset Ch2	Amplitude Ch2	Rate Ch2	Xtalk Ch1	Xtalk Ch2	Labels Ch1	Labels Ch2	Interval1 1st	Interval1 2nd	Interval1 Ch1	Interval1 Ch2	Interval2 1st	Interval2 2nd	Interval2 Ch1	Interval2 Ch2	Bleaching Ch1	Bleaching Ch2	Bleaching Cross	BG Ch1	BG Ch2	BG Cross	Xtalk Ch1	Xtalk Ch2	Xtalk Cross	Total Ch1	Total Ch2	Total Cross	G0ave Ch1	G0std Ch1	G0ave Ch2	G0std Ch2	G0ave Cross	G0std Cross	CPMave Ch1	CPMstd Ch1	CPMave Ch2	CPMstd Ch2	CPMave Cross	CPMstd Cross	Model no	Model name	Mode	1st	2nd	Chi sq Ch1	R sq adj Ch1	Chi sq Ch2	R sq adj Ch2	Chi sq Cross	R sq adj Cross	P01 name	P01 value Ch1	P01 value Ch2	P01 value Cross	P02 name	P02 value Ch1	P02 value Ch2	P02 value Cross	P03 name	P03 value Ch1	P03 value Ch2	P03 value Cross	P04 name	P04 value Ch1	P04 value Ch2	P04 value Cross	P05 name	P05 value Ch1	P05 value Ch2	P05 value Cross	P06 name	P06 value Ch1	P06 value Ch2	P06 value Cross	P07 name	P07 value Ch1	P07 value Ch2	P07 value Cross	P08 name	P08 value Ch1	P08 value Ch2	P08 value Cross	P09 name	P09 value Ch1	P09 value Ch2	P09 value Cross	P10 name	P10 value Ch1	P10 value Ch2	P10 value Cross	P11 name	P11 value Ch1	P11 value Ch2	P11 value Cross	P12 name	P12 value Ch1	P12 value Ch2	P12 value Cross	P13 name	P13 value Ch1	P13 value Ch2	P13 value Cross	P14 name	P14 value Ch1	P14 value Ch2	P14 value Cross	P15 name	P15 value Ch1	P15 value Ch2	P15 value Cross	P16 name	P16 value Ch1	P16 value Ch2	P16 value Cross	P17 name	P17 value Ch1	P17 value Ch2	P17 value Cross	P18 name	P18 value Ch1	P18 value Ch2	P18 value Cross	P19 name	P19 value Ch1	P19 value Ch2	P19 value Cross	P20 name	P20 value Ch1	P20 value Ch2	P20 value Cross	P21 name	P21 value Ch1	P21 value Ch2	P21 value Cross	P22 name	P22 value Ch1	P22 value Ch2	P22 value Cross	P23 name	P23 value Ch1	P23 value Ch2	P23 value Cross	P24 name	P24 value Ch1	P24 value Ch2	P24 value Cross	P25 name	P25 value Ch1	P25 value Ch2	P25 value Cross
0	TR1_3_W0001_P0001_T0001_R1_P1_K1_Ch2.zen	Z:\AntonioP_elltier1\CelllinesImaging\MitoSysPipelines\170419_MAD2L1gfpcM11-F11\MitoSys2\Calibration\mEGFPC1\DE_W0001_P0001\DE_2_W0001_P0001_T0001\TR1_W0001_P0001\TR1_3_W0001_P0001_T0001_R1_P1_K1_Ch2.zen	FA/ISS	20000	30	1		1	0	0	29.94	100000	2000	Scale	0	2.393	0	0.01	0	0	0.01	0	0	1	1	0	1	184.83	0	0	1	184.83	0	1.0043	1	1	0.9743	1	1	1	1	1	0.9785	1	1	0.0088728	0.00093093	0	0	0	0	1.6399	0.16824	0	0	0	0	0	two-component anomalous diffusion with fluorescent protein-like blinking	11	0	0	0.7132570567	0.9957809471	0	0	0	0	N	27.8196483731	10	10	thetaT	0.1766223256	0.2	0.2	tauT	100	100	100	f1	0.9876186384	1	1	tauD1	405.8814853401	500	500	alpha1	0.9857454478	1	1	tauD2	6606.7112742217	5000	5000	alpha2	0.5888062089	1	1	kappa	5.5	5.5	5.5	offset	0	0	0		0	0	0		0	0	0		0	0	0		0	0	0		0	0	0		0	0	0		0	0	0		0	0	0		0	0	0		0	0	0		0	0	0		0	0	0		0	0	0		0	0	0		0	0	0
1	TR1_3_W0001_P0001_T0001_R1_P2_K1_Ch2.zen	Z:\AntonioP_elltier1\CelllinesImaging\MitoSysPipelines\170419_MAD2L1gfpcM11-F11\MitoSys2\Calibration\mEGFPC1\DE_W0001_P0001\DE_2_W0001_P0001_T0001\TR1_W0001_P0001\TR1_3_W0001_P0001_T0001_R1_P2_K1_Ch2.zen	FA/ISS	20000	30	1	x	1	0	0	29.94	100000	2000	Scale	0	2.393	0	0.01	0	0	0.01	0	0	1	1	0	1	156.828	0	0	1	156.828	0	0.9933	1	1	0.9697	1	1	1	1	1	0.9631	1	1	0.011653	0.00085287	0	0	0	0	1.8263	0.13836	0	0	0	0	0	two-component anomalous diffusion with fluorescent protein-like blinking	11	0	0	0.9232453759	0.9972322622	0	0	0	0	N	82.6260655099	10	10	thetaT	0.1994771532	0.2	0.2	tauT	100	100	100	f1	0.9454115468	1	1	tauD1	353.088684302	500	500	alpha1	1.0354992475	1	1	tauD2	2901.4522670021	5000	5000	alpha2	1.2945037586	1	1	kappa	5.5	5.5	5.5	offset	0	0	0		0	0	0		0	0	0		0	0	0		0	0	0		0	0	0		0	0	0		0	0	0		0	0	0		0	0	0		0	0	0		0	0	0		0	0	0		0	0	0		0	0	0		0	0	0
2	TR1_3_W0001_P0002_T0001_R1_P1_K1_Ch2.zen	Z:\AntonioP_elltier1\CelllinesImaging\MitoSysPipelines\170419_MAD2L1gfpcM11-F11\MitoSys2\Calibration\mEGFPC1\DE_W0001_P0001\DE_2_W0001_P0001_T0001\TR1_W0001_P0002\TR1_3_W0001_P0002_T0001_R1_P1_K1_Ch2.zen	FA/ISS	20000	30	1		1	0	0	29.94	100000	2000	Scale	0	2.393	0	0.01	0	0	0.01	0	0	1	1	0	1	471.342	0	0	1	471.342	0	1.016	1	1	0.9899	1	1	1	1	1	1.0058	1	1	0.0029523	0.00019583	0	0	0	0	1.3904	0.096885	0	0	0	0	0	two-component anomalous diffusion with fluorescent protein-like blinking	11	0	0	1.6140033822	0.9911535615	0	0	0	0	N	331.5886144574	10	10	thetaT	0.197092452	0.2	0.2	tauT	100	100	100	f1	0.9686416792	1	1	tauD1	418.1182248967	500	500	alpha1	1.1093802873	1	1	tauD2	28613.7872813274	5000	5000	alpha2	1.416246857	1	1	kappa	5.5	5.5	5.5	offset	0	0	0		0	0	0		0	0	0		0	0	0		0	0	0		0	0	0		0	0	0		0	0	0		0	0	0		0	0	0		0	0	0		0	0	0		0	0	0		0	0	0		0	0	0		0	0	0
3	TR1_3_W0001_P0002_T0001_R1_P2_K1_Ch2.zen	Z:\AntonioP_elltier1\CelllinesImaging\MitoSysPipelines\170419_MAD2L1gfpcM11-F11\MitoSys2\Calibration\mEGFPC1\DE_W0001_P0001\DE_2_W0001_P0001_T0001\TR1_W0001_P0002\TR1_3_W0001_P0002_T0001_R1_P2_K1_Ch2.zen	FA/ISS	20000	30	1		1	0	0	29.94	100000	2000	Scale	0	2.393	0	0.01	0	0	0.01	0	0	1	1	0	1	340.061	0	0	1	340.061	0	1.2175	1	1	0.9856	1	1	1	1	1	1.2015	1	1	0.0049528	0.0007008	0	0	0	0	1.6656	0.36766	0	0	0	0	0	two-component anomalous diffusion with fluorescent protein-like blinking	11	0	0	1.0089702572	0.9928493592	0	0	0	0	N	244.2823592698	10	10	thetaT	0.1953776907	0.2	0.2	tauT	100	100	100	f1	0.9679281826	1	1	tauD1	451.6346942716	500	500	alpha1	1.1164854721	1	1	tauD2	69182.005067161	5000	5000	alpha2	0.9204685431	1	1	kappa	5.5	5.5	5.5	offset	0	0	0		0	0	0		0	0	0		0	0	0		0	0	0		0	0	0		0	0	0		0	0	0		0	0	0		0	0	0		0	0	0		0	0	0		0	0	0		0	0	0		0	0	0		0	0	0
4	TR1_3_W0001_P0004_T0001_R1_P1_K1_Ch2.zen	Z:\AntonioP_elltier1\CelllinesImaging\MitoSysPipelines\170419_MAD2L1gfpcM11-F11\MitoSys2\Calibration\mEGFPC1\DE_W0001_P0001\DE_2_W0001_P0001_T0001\TR1_W0001_P0004\TR1_3_W0001_P0004_T0001_R1_P1_K1_Ch2.zen	FA/ISS	20000	30	1		1	0	0	29.94	100000	2000	Scale	0	2.393	0	0.01	0	0	0.01	0	0	1	1	0	1	194.403	0	0	1	194.403	0	1.0196	1	1	0.9755	1	1	1	1	1	0.9948	1	1	0.0080824	0.00045371	0	0	0	0	1.5695	0.094637	0	0	0	0	0	two-component anomalous diffusion with fluorescent protein-like blinking	11	0	0	1.181966285	0.9929056775	0	0	0	0	N	115.327577613	10	10	thetaT	0.1997451551	0.2	0.2	tauT	100	100	100	f1	0.9962657175	1	1	tauD1	386.0492164483	500	500	alpha1	1.0162210503	1	1	tauD2	27773.2530604338	5000	5000	alpha2	0.8455706741	1	1	kappa	5.5	5.5	5.5	offset	0	0	0		0	0	0		0	0	0		0	0	0		0	0	0		0	0	0		0	0	0		0	0	0		0	0	0		0	0	0		0	0	0		0	0	0		0	0	0		0	0	0		0	0	0		0	0	0
5	TR1_3_W0001_P0004_T0001_R1_P2_K1_Ch2.zen	Z:\AntonioP_elltier1\CelllinesImaging\MitoSysPipelines\170419_MAD2L1gfpcM11-F11\MitoSys2\Calibration\mEGFPC1\DE_W0001_P0001\DE_2_W0001_P0001_T0001\TR1_W0001_P0004\TR1_3_W0001_P0004_T0001_R1_P2_K1_Ch2.zen	FA/ISS	20000	30	1		1	0	0	29.94	100000	2000	Scale	0	2.393	0	0.01	0	0	0.01	0	0	1	1	0	1	180.625	0	0	1	180.625	0	0.9511	1	1	0.9737	1	1	1	1	1	0.9254	1	1	0.010272	0.0017467	0	0	0	0	1.8508	0.28724	0	0	0	0	0	two-component anomalous diffusion with fluorescent protein-like blinking	11	0	0	1.0018994908	0.9973501978	0	0	0	0	N	97.755837462	10	10	thetaT	0.1969946102	0.2	0.2	tauT	100	100	100	f1	0.9429780117	1	1	tauD1	330.7816007571	500	500	alpha1	1.0866579307	1	1	tauD2	13275.0961376398	5000	5000	alpha2	1.0232691077	1	1	kappa	5.5	5.5	5.5	offset	0	0	0		0	0	0		0	0	0		0	0	0		0	0	0		0	0	0		0	0	0		0	0	0		0	0	0		0	0	0		0	0	0		0	0	0		0	0	0		0	0	0		0	0	0		0	0	0
6	TR1_3_W0001_P0005_T0001_R1_P1_K1_Ch2.zen	Z:\AntonioP_elltier1\CelllinesImaging\MitoSysPipelines\170419_MAD2L1gfpcM11-F11\MitoSys2\Calibration\mEGFPC1\DE_W0001_P0001\DE_2_W0001_P0001_T0001\TR1_W0001_P0001\TR1_3_W0001_P0001_T0001_R1_P1_K1_Ch2.zen	FA/ISS	20000	30	1		1	0	0	29.94	100000	2000	Scale	0	2.393	0	0.01	0	0	0.01	0	0	1	1	0	1	184.83	0	0	1	184.83	0	1.0029	1	1	0.9743	1	1	1	1	1	0.9772	1	1	0.0088127	0.00047587	0	0	0	0	1.6297	0.083202	0	0	0	0	0	two-component anomalous diffusion with fluorescent protein-like blinking	11	0	0	0.7001358764	0.9958026522	0	0	0	0	N	27.7734215447	10	10	thetaT	0.1550144748	0.2	0.2	tauT	100	100	100	f1	0.9772559856	1	1	tauD1	380.1105779918	500	500	alpha1	0.9734126905	1	1	tauD2	1707.1573831653	5000	5000	alpha2	0.5000005084	1	1	kappa	5.5	5.5	5.5	offset	0	0	0		0	0	0		0	0	0		0	0	0		0	0	0		0	0	0		0	0	0		0	0	0		0	0	0		0	0	0		0	0	0		0	0	0		0	0	0		0	0	0		0	0	0		0	0	0
7	TR1_3_W0001_P0005_T0001_R1_P2_K1_Ch2.zen	Z:\AntonioP_elltier1\CelllinesImaging\MitoSysPipelines\170419_MAD2L1gfpcM11-F11\MitoSys2\Calibration\mEGFPC1\DE_W0002_P0001\DE_2_W0002_P0001_T0001\TR1_W0001_P0005\TR1_3_W0001_P0005_T0001_R1_P2_K1_Ch2.zen	FA/ISS	20000	30	1		1	0	0	29.94	100000	2000	Scale	0	2.393	0	0.01	0	0	0.01	0	0	1	1	0	1	47.245	0	0	1	47.245	0	1.0092	1	1	0.9013	1	1	1	1	1	0.91	1	1	0.029223	0.0028513	0	0	0	0	1.38	0.12862	0	0	0	0	0	two-component anomalous diffusion with fluorescent protein-like blinking	11	0	0	0.8853003277	0.9956327634	0	0	0	0	N	32.5649358994	10	10	thetaT	0.1626974306	0.2	0.2	tauT	100	100	100	f1	0.974084443	1	1	tauD1	296.6413385497	500	500	alpha1	1.045746038	1	1	tauD2	13639.6740094118	5000	5000	alpha2	1.9998978718	1	1	kappa	5.5	5.5	5.5	offset	0	0	0		0	0	0		0	0	0		0	0	0		0	0	0		0	0	0		0	0	0		0	0	0		0	0	0		0	0	0		0	0	0		0	0	0		0	0	0		0	0	0		0	0	0		0	0	0
8	TR1_3_W0001_P0006_T0001_R1_P1_K1_Ch2.zen	Z:\AntonioP_elltier1\CelllinesImaging\MitoSysPipelines\170419_MAD2L1gfpcM11-F11\MitoSys2\Calibration\mEGFPC1\DE_W0002_P0001\DE_2_W0002_P0001_T0001\TR1_W0001_P0006\TR1_3_W0001_P0006_T0001_R1_P1_K1_Ch2.zen	FA/ISS	20000	30	1		1	0	0	29.94	100000	2000	Scale	0	2.393	0	0.01	0	0	0.01	0	0	1	1	0	1	39.18	0	0	1	39.18	0	1.0112	1	1	0.8817	1	1	1	1	1	0.8922	1	1	0.038156	0.0047285	0	0	0	0	1.4959	0.18715	0	0	0	0	0	two-component anomalous diffusion with fluorescent protein-like blinking	11	0	0	0.8557323337	0.9951384429	0	0	0	0	N	25.7222267207	10	10	thetaT	0.1696938454	0.2	0.2	tauT	100	100	100	f1	0.9807759707	1	1	tauD1	348.2964477207	500	500	alpha1	1.0071038422	1	1	tauD2	5612.1019786283	5000	5000	alpha2	1.4071421589	1	1	kappa	5.5	5.5	5.5	offset	0	0	0		0	0	0		0	0	0		0	0	0		0	0	0		0	0	0		0	0	0		0	0	0		0	0	0		0	0	0		0	0	0		0	0	0		0	0	0		0	0	0		0	0	0		0	0	0
9	TR1_3_W0001_P0006_T0001_R1_P2_K1_Ch2.zen	Z:\AntonioP_elltier1\CelllinesImaging\MitoSysPipelines\170419_MAD2L1gfpcM11-F11\MitoSys2\Calibration\mEGFPC1\DE_W0002_P0001\DE_2_W0002_P0001_T0001\TR1_W0001_P0006\TR1_3_W0001_P0006_T0001_R1_P2_K1_Ch2.zen	FA/ISS	20000	30	1	x	1	0	0	29.94	100000	2000	Scale	0	2.393	0	0.01	0	0	0.01	0	0	1	1	0	1	24.288	0	0	1	24.288	0	1.0004	1	1	0.8134	1	1	1	1	1	0.8138	1	1	0.069834	0.0029728	0	0	0	0	1.7027	0.067696	0	0	0	0	0	two-component anomalous diffusion with fluorescent protein-like blinking	11	0	0	1.1025370779	0.9944396434	0	0	0	0	N	13.229824539	10	10	thetaT	0.2207484383	0.2	0.2	tauT	100	100	100	f1	0.917447818	1	1	tauD1	330.6381800299	500	500	alpha1	0.9298556137	1	1	tauD2	672.0484399915	5000	5000	alpha2	1.013825937	1	1	kappa	5.5	5.5	5.5	offset	0	0	0		0	0	0		0	0	0		0	0	0		0	0	0		0	0	0		0	0	0		0	0	0		0	0	0		0	0	0		0	0	0		0	0	0		0	0	0		0	0	0		0	0	0		0	0	0
10	TR1_3_W0001_P0007_T0001_R1_P1_K1_Ch2.zen	Z:\AntonioP_elltier1\CelllinesImaging\MitoSysPipelines\170419_MAD2L1gfpcM11-F11\MitoSys2\Calibration\mEGFPC1\DE_W0002_P0001\DE_2_W0002_P0001_T0001\TR1_W0001_P0007\TR1_3_W0001_P0007_T0001_R1_P1_K1_Ch2.zen	FA/ISS	20000	30	1		1	0	0	29.94	100000	2000	Scale	0	2.393	0	0.01	0	0	0.01	0	0	1	1	0	1	45.294	0	0	1	45.294	0	1.0037	1	1	0.8971	1	1	1	1	1	0.9006	1	1	0.036625	0.0024425	0	0	0	0	1.6579	0.10975	0	0	0	0	0	two-component anomalous diffusion with fluorescent protein-like blinking	11	0	0	0.9770134543	0.9958441561	0	0	0	0	N	25.5020281858	10	10	thetaT	0.1968441124	0.2	0.2	tauT	100	100	100	f1	0.7387725209	1	1	tauD1	219.6727540847	500	500	alpha1	0.7683471482	1	1	tauD2	571.592492644	5000	5000	alpha2	1.7753650281	1	1	kappa	5.5	5.5	5.5	offset	0	0	0		0	0	0		0	0	0		0	0	0		0	0	0		0	0	0		0	0	0		0	0	0		0	0	0		0	0	0		0	0	0		0	0	0		0	0	0		0	0	0		0	0	0		0	0	0
11	TR1_3_W0001_P0007_T0001_R1_P2_K1_Ch2.zen	Z:\AntonioP_elltier1\CelllinesImaging\MitoSysPipelines\170419_MAD2L1gfpcM11-F11\MitoSys2\Calibration\mEGFPC1\DE_W0002_P0001\DE_2_W0002_P0001_T0001\TR1_W0001_P0007\TR1_3_W0001_P0007_T0001_R1_P2_K1_Ch2.zen	FA/ISS	20000	30	1		1	0	0	29.94	100000	2000	Scale	0	2.393	0	0.01	0	0	0.01	0	0	1	1	0	1	39.059	0	0	1	39.059	0	1.0264	1	1	0.8812	1	1	1	1	1	0.906	1	1	0.041083	0.005522	0	0	0	0	1.6044	0.21322	0	0	0	0	0	two-component anomalous diffusion with fluorescent protein-like blinking	11	0	0	1.170299078	0.9971981822	0	0	0	0	N	24.3576645693	10	10	thetaT	0.1828598316	0.2	0.2	tauT	100	100	100	f1	0.9545697125	1	1	tauD1	349.5671737881	500	500	alpha1	1.1417210984	1	1	tauD2	6583.1462472783	5000	5000	alpha2	1.9401485096	1	1	kappa	5.5	5.5	5.5	offset	0	0	0		0	0	0		0	0	0		0	0	0		0	0	0		0	0	0		0	0	0		0	0	0		0	0	0		0	0	0		0	0	0		0	0	0		0	0	0		0	0	0		0	0	0		0	0	0
12	TR1_3_W0001_P0008_T0001_R1_P1_K1_Ch2.zen	Z:\AntonioP_elltier1\CelllinesImaging\MitoSysPipelines\170419_MAD2L1gfpcM11-F11\MitoSys2\Calibration\mEGFPC1\DE_W0002_P0001\DE_2_W0002_P0001_T0001\TR1_W0001_P0008\TR1_3_W0001_P0008_T0001_R1_P1_K1_Ch2.zen	FA/ISS	20000	30	1		1	0	0	29.94	100000	2000	Scale	0	2.393	0	0.01	0	0	0.01	0	0	1	1	0	1	49.561	0	0	1	49.561	0	1.0121	1	1	0.9057	1	1	1	1	1	0.9172	1	1	0.028111	0.0027145	0	0	0	0	1.3911	0.12849	0	0	0	0	0	two-component anomalous diffusion with fluorescent protein-like blinking	11	0	0	0.8559299484	0.9971548187	0	0	0	0	N	36.4744948889	10	10	thetaT	0.1056022754	0.2	0.2	tauT	100	100	100	f1	0.8905575515	1	1	tauD1	880.6296987226	500	500	alpha1	0.965075814	1	1	tauD2	781.8910582467	5000	5000	alpha2	1.0684688891	1	1	kappa	5.5	5.5	5.5	offset	0	0	0		0	0	0		0	0	0		0	0	0		0	0	0		0	0	0		0	0	0		0	0	0		0	0	0		0	0	0		0	0	0		0	0	0		0	0	0		0	0	0		0	0	0		0	0	0
13	TR1_3_W0001_P0008_T0001_R1_P2_K1_Ch2.zen	Z:\AntonioP_elltier1\CelllinesImaging\MitoSysPipelines\170419_MAD2L1gfpcM11-F11\MitoSys2\Calibration\mEGFPC1\DE_W0002_P0001\DE_2_W0002_P0001_T0001\TR1_W0001_P0008\TR1_3_W0001_P0008_T0001_R1_P2_K1_Ch2.zen	FA/ISS	20000	30	1		1	0	0	29.94	100000	2000	Scale	0	2.393	0	0.01	0	0	0.01	0	0	1	1	0	1	72.728	0	0	1	72.728	0	1.0075	1	1	0.9352	1	1	1	1	1	0.9425	1	1	0.024246	0.0022388	0	0	0	0	1.7611	0.1594	0	0	0	0	0	two-component anomalous diffusion with fluorescent protein-like blinking	11	0	0	1.1580819579	0.9950208991	0	0	0	0	N	42.2721798311	10	10	thetaT	0.1887873854	0.2	0.2	tauT	100	100	100	f1	0.9760552728	1	1	tauD1	344.4138545762	500	500	alpha1	1.1065892588	1	1	tauD2	15775.1340119784	5000	5000	alpha2	1.0067484177	1	1	kappa	5.5	5.5	5.5	offset	0	0	0		0	0	0		0	0	0		0	0	0		0	0	0		0	0	0		0	0	0		0	0	0		0	0	0		0	0	0		0	0	0		0	0	0		0	0	0		0	0	0		0	0	0		0	0	0
14	TR1_3_W0001_P0010_T0001_R1_P1_K1_Ch2.zen	Z:\AntonioP_elltier1\CelllinesImaging\MitoSysPipelines\170419_MAD2L1gfpcM11-F11\MitoSys2\Calibration\mEGFPC1\DE_W0003_P0001\DE_2_W0003_P0001_T0001\TR1_W0001_P0010\TR1_3_W0001_P0010_T0001_R1_P1_K1_Ch2.zen	FA/ISS	20000	30	1		1	0	0	29.94	100000	2000	Scale	0	2.393	0	0.01	0	0	0.01	0	0	1	1	0	1	62.827	0	0	1	62.827	0	1.0021	1	1	0.9252	1	1	1	1	1	0.9272	1	1	0.025205	0.0022567	0	0	0	0	1.5821	0.14271	0	0	0	0	0	two-component anomalous diffusion with fluorescent protein-like blinking	11	0	0	0.9640570322	0.9962570174	0	0	0	0	N	38.7345790503	10	10	thetaT	0.1725130896	0.2	0.2	tauT	100	100	100	f1	0.9842752787	1	1	tauD1	508.3752285268	500	500	alpha1	1.0340258054	1	1	tauD2	8199.4525359098	5000	5000	alpha2	0.9595892478	1	1	kappa	5.5	5.5	5.5	offset	0	0	0		0	0	0		0	0	0		0	0	0		0	0	0		0	0	0		0	0	0		0	0	0		0	0	0		0	0	0		0	0	0		0	0	0		0	0	0		0	0	0		0	0	0		0	0	0
15	TR1_3_W0001_P0010_T0001_R1_P2_K1_Ch2.zen	Z:\AntonioP_elltier1\CelllinesImaging\MitoSysPipelines\170419_MAD2L1gfpcM11-F11\MitoSys2\Calibration\mEGFPC1\DE_W0003_P0001\DE_2_W0003_P0001_T0001\TR1_W0001_P0010\TR1_3_W0001_P0010_T0001_R1_P2_K1_Ch2.zen	FA/ISS	20000	30	1	x	1	0	0	29.94	100000	2000	Scale	0	2.393	0	0.01	0	0	0.01	0	0	1	1	0	1	30.514	0	0	1	30.514	0	0.8729	1	1	0.8498	1	1	1	1	1	0.7324	1	1	0.072968	0.0026193	0	0	0	0	2.2392	0.13731	0	0	0	0	0	two-component anomalous diffusion with fluorescent protein-like blinking	11	0	0	0.6282228035	0.9980041037	0	0	0	0	N	13.8246744415	10	10	thetaT	0.2215388335	0.2	0.2	tauT	100	100	100	f1	0.9645246763	1	1	tauD1	436.764944815	500	500	alpha1	1.1543332787	1	1	tauD2	31260.630494719	5000	5000	alpha2	1.3658175633	1	1	kappa	5.5	5.5	5.5	offset	0	0	0		0	0	0		0	0	0		0	0	0		0	0	0		0	0	0		0	0	0		0	0	0		0	0	0		0	0	0		0	0	0		0	0	0		0	0	0		0	0	0		0	0	0		0	0	0
16	TR1_3_W0001_P0011_T0001_R1_P1_K1_Ch2.zen	Z:\AntonioP_elltier1\CelllinesImaging\MitoSysPipelines\170419_MAD2L1gfpcM11-F11\MitoSys2\Calibration\mEGFPC1\DE_W0003_P0001\DE_2_W0003_P0001_T0001\TR1_W0001_P0011\TR1_3_W0001_P0011_T0001_R1_P1_K1_Ch2.zen	FA/ISS	20000	30	1		1	0	0	29.94	100000	2000	Scale	0	2.393	0	0.01	0	0	0.01	0	0	1	1	0	1	314.538	0	0	1	314.538	0	1.0076	1	1	0.9848	1	1	1	1	1	0.9923	1	1	0.004735	0.00074637	0	0	0	0	1.4886	0.23339	0	0	0	0	0	two-component anomalous diffusion with fluorescent protein-like blinking	11	0	0	1.2254014391	0.9939128279	0	0	0	0	N	201.4662195034	10	10	thetaT	0.1855282247	0.2	0.2	tauT	100	100	100	f1	0.9656783986	1	1	tauD1	366.7454796144	500	500	alpha1	1.0927704374	1	1	tauD2	16650.783264231	5000	5000	alpha2	1.7619662712	1	1	kappa	5.5	5.5	5.5	offset	0	0	0		0	0	0		0	0	0		0	0	0		0	0	0		0	0	0		0	0	0		0	0	0		0	0	0		0	0	0		0	0	0		0	0	0		0	0	0		0	0	0		0	0	0		0	0	0
17	TR1_3_W0001_P0011_T0001_R1_P2_K1_Ch2.zen	Z:\AntonioP_elltier1\CelllinesImaging\MitoSysPipelines\170419_MAD2L1gfpcM11-F11\MitoSys2\Calibration\mEGFPC1\DE_W0003_P0001\DE_2_W0003_P0001_T0001\TR1_W0001_P0011\TR1_3_W0001_P0011_T0001_R1_P2_K1_Ch2.zen	FA/ISS	20000	30	1		1	0	0	29.94	100000	2000	Scale	0	2.393	0	0.01	0	0	0.01	0	0	1	1	0	1	302.019	0	0	1	302.019	0	1.0205	1	1	0.9842	1	1	1	1	1	1.0045	1	1	0.0059593	0.00092422	0	0	0	0	1.7962	0.27249	0	0	0	0	0	two-component anomalous diffusion with fluorescent protein-like blinking	11	0	0	1.0012908148	0.9974563651	0	0	0	0	N	157.7975477064	10	10	thetaT	0.1938247199	0.2	0.2	tauT	100	100	100	f1	0.9697908374	1	1	tauD1	336.9545361636	500	500	alpha1	1.1315910728	1	1	tauD2	46103.8973728434	5000	5000	alpha2	1.6626735751	1	1	kappa	5.5	5.5	5.5	offset	0	0	0		0	0	0		0	0	0		0	0	0		0	0	0		0	0	0		0	0	0		0	0	0		0	0	0		0	0	0		0	0	0		0	0	0		0	0	0		0	0	0		0	0	0		0	0	0
18	TR1_3_W0001_P0013_T0001_R1_P1_K1_Ch2.zen	Z:\AntonioP_elltier1\CelllinesImaging\MitoSysPipelines\170419_MAD2L1gfpcM11-F11\MitoSys2\Calibration\mEGFPC1\DE_W0004_P0001\DE_2_W0004_P0001_T0001\TR1_W0001_P0013\TR1_3_W0001_P0013_T0001_R1_P1_K1_Ch2.zen	FA/ISS	20000	30	1		1	0	0	29.94	100000	2000	Scale	0	2.393	0	0.01	0	0	0.01	0	0	1	1	0	1	551.197	0	0	1	551.197	0	1.0151	1	1	0.9913	1	1	1	1	1	1.0064	1	1	0.0028125	0.00018607	0	0	0	0	1.5507	0.11036	0	0	0	0	0	two-component anomalous diffusion with fluorescent protein-like blinking	11	0	0	0.6938149126	0.9971071057	0	0	0	0	N	352.981735336	10	10	thetaT	0.2010645918	0.2	0.2	tauT	100	100	100	f1	0.9835103536	1	1	tauD1	405.0105792235	500	500	alpha1	1.1033705628	1	1	tauD2	22347.485197536	5000	5000	alpha2	1.0999106965	1	1	kappa	5.5	5.5	5.5	offset	0	0	0		0	0	0		0	0	0		0	0	0		0	0	0		0	0	0		0	0	0		0	0	0		0	0	0		0	0	0		0	0	0		0	0	0		0	0	0		0	0	0		0	0	0		0	0	0
19	TR1_3_W0001_P0013_T0001_R1_P2_K1_Ch2.zen	Z:\AntonioP_elltier1\CelllinesImaging\MitoSysPipelines\170419_MAD2L1gfpcM11-F11\MitoSys2\Calibration\mEGFPC1\DE_W0004_P0001\DE_2_W0004_P0001_T0001\TR1_W0001_P0013\TR1_3_W0001_P0013_T0001_R1_P2_K1_Ch2.zen	FA/ISS	20000	30	1		1	0	0	29.94	100000	2000	Scale	0	2.393	0	0.01	0	0	0.01	0	0	1	1	0	1	500.435	0	0	1	500.435	0	1.0136	1	1	0.9904	1	1	1	1	1	1.004	1	1	0.0030122	0.00022941	0	0	0	0	1.5048	0.10773	0	0	0	0	0	two-component anomalous diffusion with fluorescent protein-like blinking	11	0	0	1.090546229	0.9939342734	0	0	0	0	N	330.1982803815	10	10	thetaT	0.1891100445	0.2	0.2	tauT	100	100	100	f1	0.9755050621	1	1	tauD1	411.1557816438	500	500	alpha1	1.1061541882	1	1	tauD2	53362.4656468082	5000	5000	alpha2	0.859616088	1	1	kappa	5.5	5.5	5.5	offset	0	0	0		0	0	0		0	0	0		0	0	0		0	0	0		0	0	0		0	0	0		0	0	0		0	0	0		0	0	0		0	0	0		0	0	0		0	0	0		0	0	0		0	0	0		0	0	0
20	TR1_3_W0001_P0014_T0001_R1_P1_K1_Ch2.zen	Z:\AntonioP_elltier1\CelllinesImaging\MitoSysPipelines\170419_MAD2L1gfpcM11-F11\MitoSys2\Calibration\mEGFPC1\DE_W0004_P0001\DE_2_W0004_P0001_T0001\TR1_W0001_P0014\TR1_3_W0001_P0014_T0001_R1_P1_K1_Ch2.zen	FA/ISS	20000	30	1		1	0	0	29.94	100000	2000	Scale	0	2.393	0	0.01	0	0	0.01	0	0	1	1	0	1	197.719	0	0	1	197.719	0	1.0078	1	1	0.9759	1	1	1	1	1	0.9837	1	1	0.0084476	0.00053004	0	0	0	0	1.669	0.10965	0	0	0	0	0	two-component anomalous diffusion with fluorescent protein-like blinking	11	0	0	1.3552038688	0.9951417749	0	0	0	0	N	116.20332684	10	10	thetaT	0.1811096935	0.2	0.2	tauT	100	100	100	f1	0.9475506654	1	1	tauD1	305.7127806138	500	500	alpha1	0.9948362737	1	1	tauD2	624.7819475635	5000	5000	alpha2	1.5328116351	1	1	kappa	5.5	5.5	5.5	offset	0	0	0		0	0	0		0	0	0		0	0	0		0	0	0		0	0	0		0	0	0		0	0	0		0	0	0		0	0	0		0	0	0		0	0	0		0	0	0		0	0	0		0	0	0		0	0	0
21	TR1_3_W0001_P0014_T0001_R1_P2_K1_Ch2.zen	Z:\AntonioP_elltier1\CelllinesImaging\MitoSysPipelines\170419_MAD2L1gfpcM11-F11\MitoSys2\Calibration\mEGFPC1\DE_W0004_P0001\DE_2_W0004_P0001_T0001\TR1_W0001_P0014\TR1_3_W0001_P0014_T0001_R1_P2_K1_Ch2.zen	FA/ISS	20000	30	1	x	1	0	0	29.94	100000	2000	Scale	0	2.393	0	0.01	0	0	0.01	0	0	1	1	0	1	171.203	0	0	1	171.203	0	1.0272	1	1	0.9723	1	1	1	1	1	0.9991	1	1	0.010163	0.00082799	0	0	0	0	1.7423	0.13728	0	0	0	0	0	two-component anomalous diffusion with fluorescent protein-like blinking	11	0	0	0.8951202298	0.9970193972	0	0	0	0	N	98.3891023241	10	10	thetaT	0.183616604	0.2	0.2	tauT	100	100	100	f1	0.9883729131	1	1	tauD1	324.2383405133	500	500	alpha1	1.0366181246	1	1	tauD2	24061.764172145	5000	5000	alpha2	0.7937566943	1	1	kappa	5.5	5.5	5.5	offset	0	0	0		0	0	0		0	0	0		0	0	0		0	0	0		0	0	0		0	0	0		0	0	0		0	0	0		0	0	0		0	0	0		0	0	0		0	0	0		0	0	0		0	0	0		0	0	0
22	TR1_3_W0001_P0015_T0001_R1_P1_K1_Ch2.zen	Z:\AntonioP_elltier1\CelllinesImaging\MitoSysPipelines\170419_MAD2L1gfpcM11-F11\MitoSys2\Calibration\mEGFPC1\DE_W0004_P0001\DE_2_W0004_P0001_T0001\TR1_W0001_P0015\TR1_3_W0001_P0015_T0001_R1_P1_K1_Ch2.zen	FA/ISS	20000	30	1		1	0	0	29.94	100000	2000	Scale	0	2.393	0	0.01	0	0	0.01	0	0	1	1	0	1	486.712	0	0	1	486.712	0	1.0224	1	1	0.9902	1	1	1	1	1	1.0124	1	1	0.0027429	0.00031058	0	0	0	0	1.3342	0.14893	0	0	0	0	0	two-component anomalous diffusion with fluorescent protein-like blinking	11	0	0	1.023767712	0.9955661373	0	0	0	0	N	356.6393954803	10	10	thetaT	0.2075130311	0.2	0.2	tauT	100	100	100	f1	0.9807910446	1	1	tauD1	496.424521396	500	500	alpha1	1.0471825744	1	1	tauD2	16693.4416334955	5000	5000	alpha2	1.1921930739	1	1	kappa	5.5	5.5	5.5	offset	0	0	0		0	0	0		0	0	0		0	0	0		0	0	0		0	0	0		0	0	0		0	0	0		0	0	0		0	0	0		0	0	0		0	0	0		0	0	0		0	0	0		0	0	0		0	0	0
23	TR1_3_W0001_P0015_T0001_R1_P2_K1_Ch2.zen	Z:\AntonioP_elltier1\CelllinesImaging\MitoSysPipelines\170419_MAD2L1gfpcM11-F11\MitoSys2\Calibration\mEGFPC1\DE_W0004_P0001\DE_2_W0004_P0001_T0001\TR1_W0001_P0015\TR1_3_W0001_P0015_T0001_R1_P2_K1_Ch2.zen	FA/ISS	20000	30	1		1	0	0	29.94	100000	2000	Scale	0	2.393	0	0.01	0	0	0.01	0	0	1	1	0	1	452.909	0	0	1	452.909	0	0.998	1	1	0.9895	1	1	1	1	1	0.9875	1	1	0.0032974	0.0002017	0	0	0	0	1.4964	0.083793	0	0	0	0	0	two-component anomalous diffusion with fluorescent protein-like blinking	11	0	0	0.9097206965	0.995951561	0	0	0	0	N	303.687183328	10	10	thetaT	0.1554948687	0.2	0.2	tauT	100	100	100	f1	0.9741333699	1	1	tauD1	427.2874996087	500	500	alpha1	1.1068913799	1	1	tauD2	45068.9408192139	5000	5000	alpha2	0.9568574267	1	1	kappa	5.5	5.5	5.5	offset	0	0	0		0	0	0		0	0	0		0	0	0		0	0	0		0	0	0		0	0	0		0	0	0		0	0	0		0	0	0		0	0	0		0	0	0		0	0	0		0	0	0		0	0	0		0	0	0
24	TR1_3_W0001_P0016_T0001_R1_P1_K1_Ch2.zen	Z:\AntonioP_elltier1\CelllinesImaging\MitoSysPipelines\170419_MAD2L1gfpcM11-F11\MitoSys2\Calibration\mEGFPC1\DE_W0004_P0001\DE_2_W0004_P0001_T0001\TR1_W0001_P0016\TR1_3_W0001_P0016_T0001_R1_P1_K1_Ch2.zen	FA/ISS	20000	30	1		1	0	0	29.94	100000	2000	Scale	0	2.393	0	0.01	0	0	0.01	0	0	1	1	0	1	171.929	0	0	1	171.929	0	1.0143	1	1	0.9723	1	1	1	1	1	0.9865	1	1	0.0092663	0.00059995	0	0	0	0	1.5919	0.10757	0	0	0	0	0	two-component anomalous diffusion with fluorescent protein-like blinking	11	0	0	0.9090626007	0.9967963938	0	0	0	0	N	111.6673056511	10	10	thetaT	0.1832254976	0.2	0.2	tauT	100	100	100	f1	0.9797786401	1	1	tauD1	528.9093273536	500	500	alpha1	1.0790722677	1	1	tauD2	50502.1392489395	5000	5000	alpha2	0.9750248972	1	1	kappa	5.5	5.5	5.5	offset	0	0	0		0	0	0		0	0	0		0	0	0		0	0	0		0	0	0		0	0	0		0	0	0		0	0	0		0	0	0		0	0	0		0	0	0		0	0	0		0	0	0		0	0	0		0	0	0
25	TR1_3_W0001_P0016_T0001_R1_P2_K1_Ch2.zen	Z:\AntonioP_elltier1\CelllinesImaging\MitoSysPipelines\170419_MAD2L1gfpcM11-F11\MitoSys2\Calibration\mEGFPC1\DE_W0004_P0001\DE_2_W0004_P0001_T0001\TR1_W0001_P0016\TR1_3_W0001_P0016_T0001_R1_P2_K1_Ch2.zen	FA/ISS	20000	30	1		1	0	0	29.94	100000	2000	Scale	0	2.393	0	0.01	0	0	0.01	0	0	1	1	0	1	168.963	0	0	1	168.963	0	1.0001	1	1	0.9719	1	1	1	1	1	0.972	1	1	0.010152	0.00091346	0	0	0	0	1.7173	0.15	0	0	0	0	0	two-component anomalous diffusion with fluorescent protein-like blinking	11	0	0	0.7163832929	0.9971528492	0	0	0	0	N	95.9178920218	10	10	thetaT	0.2254609621	0.2	0.2	tauT	100	100	100	f1	0.9518880763	1	1	tauD1	314.7712673586	500	500	alpha1	1.0624508205	1	1	tauD2	5721.4253380833	5000	5000	alpha2	1.0111330279	1	1	kappa	5.5	5.5	5.5	offset	0	0	0		0	0	0		0	0	0		0	0	0		0	0	0		0	0	0		0	0	0		0	0	0		0	0	0		0	0	0		0	0	0		0	0	0		0	0	0		0	0	0		0	0	0		0	0	0
26	TR1_3_W0001_P0017_T0001_R1_P1_K1_Ch2.zen	Z:\AntonioP_elltier1\CelllinesImaging\MitoSysPipelines\170419_MAD2L1gfpcM11-F11\MitoSys2\Calibration\mEGFPC1\DE_W0005_P0001\DE_2_W0005_P0001_T0001\TR1_W0001_P0017\TR1_3_W0001_P0017_T0001_R1_P1_K1_Ch2.zen	FA/ISS	20000	30	1		1	0	0	29.94	100000	2000	Scale	0	2.393	0	0.01	0	0	0.01	0	0	1	1	0	1	238.537	0	0	1	238.537	0	1.0115	1	1	0.98	1	1	1	1	1	0.9914	1	1	0.005835	0.0003768	0	0	0	0	1.3907	0.092172	0	0	0	0	0	two-component anomalous diffusion with fluorescent protein-like blinking	11	0	0	1.3046808042	0.9915290037	0	0	0	0	N	159.8185350001	10	10	thetaT	0.2014688413	0.2	0.2	tauT	100	100	100	f1	0.9720944075	1	1	tauD1	374.4289150814	500	500	alpha1	1.1137884628	1	1	tauD2	27418.5705698573	5000	5000	alpha2	1.3462581791	1	1	kappa	5.5	5.5	5.5	offset	0	0	0		0	0	0		0	0	0		0	0	0		0	0	0		0	0	0		0	0	0		0	0	0		0	0	0		0	0	0		0	0	0		0	0	0		0	0	0		0	0	0		0	0	0		0	0	0
27	TR1_3_W0001_P0017_T0001_R1_P2_K1_Ch2.zen	Z:\AntonioP_elltier1\CelllinesImaging\MitoSysPipelines\170419_MAD2L1gfpcM11-F11\MitoSys2\Calibration\mEGFPC1\DE_W0005_P0001\DE_2_W0005_P0001_T0001\TR1_W0001_P0017\TR1_3_W0001_P0017_T0001_R1_P2_K1_Ch2.zen	FA/ISS	20000	30	1	x	1	0	0	29.94	100000	2000	Scale	0	2.393	0	0.01	0	0	0.01	0	0	1	1	0	1	618.822	0	0	1	618.822	0	0.8713	1	1	0.9922	1	1	1	1	1	0.8639	1	1	0.0012092	0.0007973	0	0	0	0	0.7501	0.49073	0	0	0	0	0	two-component anomalous diffusion with fluorescent protein-like blinking	11	0	0	2.5116002856	0.9842453928	0	0	0	0	N	780.2800213416	10	10	thetaT	0.1609034883	0.2	0.2	tauT	100	100	100	f1	0.9786154457	1	1	tauD1	471.3707033759	500	500	alpha1	1.1503894071	1	1	tauD2	4011.7284783659	5000	5000	alpha2	0.7939544096	1	1	kappa	5.5	5.5	5.5	offset	0	0	0		0	0	0		0	0	0		0	0	0		0	0	0		0	0	0		0	0	0		0	0	0		0	0	0		0	0	0		0	0	0		0	0	0		0	0	0		0	0	0		0	0	0		0	0	0
28	TR1_3_W0001_P0019_T0001_R1_P1_K1_Ch2.zen	Z:\AntonioP_elltier1\CelllinesImaging\MitoSysPipelines\170419_MAD2L1gfpcM11-F11\MitoSys2\Calibration\mEGFPC1\DE_W0005_P0001\DE_2_W0005_P0001_T0001\TR1_W0001_P0019\TR1_3_W0001_P0019_T0001_R1_P1_K1_Ch2.zen	FA/ISS	20000	30	1	x	1	0	0	29.94	100000	2000	Scale	0	2.393	0	0.01	0	0	0.01	0	0	1	1	0	1	2.191	0	0	1	2.191	0	1.1439	1	1	0.0174	1	1	1	1	1	-0.0046	1	1	0.03588	0.10713	0	0	0	0	0.077644	0.23602	0	0	0	0	0	two-component anomalous diffusion with fluorescent protein-like blinking	11	0	0	1.079075831	-0.0045980347	0	0	0	0	N	137.547057465	10	10	thetaT	0.6469970593	0.2	0.2	tauT	100	100	100	f1	0.0013474849	1	1	tauD1	18101.9597783679	500	500	alpha1	1.1992760277	1	1	tauD2	9978.4487532924	5000	5000	alpha2	1.9999961457	1	1	kappa	5.5	5.5	5.5	offset	0	0	0		0	0	0		0	0	0		0	0	0		0	0	0		0	0	0		0	0	0		0	0	0		0	0	0		0	0	0		0	0	0		0	0	0		0	0	0		0	0	0		0	0	0		0	0	0
29	TR1_3_W0001_P0019_T0001_R1_P2_K1_Ch2.zen	Z:\AntonioP_elltier1\CelllinesImaging\MitoSysPipelines\170419_MAD2L1gfpcM11-F11\MitoSys2\Calibration\mEGFPC1\DE_W0005_P0001\DE_2_W0005_P0001_T0001\TR1_W0001_P0019\TR1_3_W0001_P0019_T0001_R1_P2_K1_Ch2.zen	FA/ISS	20000	30	1	x	1	0	0	29.94	100000	2000	Scale	0	2.393	0	0.01	0	0	0.01	0	0	1	1	0	1	2.432	0	0	1	2.432	0	1.0973	1	1	0.0054	1	1	1	1	1	-0.0011	1	1	0.031293	0.059288	0	0	0	0	0.081031	0.14282	0	0	0	0	0	two-component anomalous diffusion with fluorescent protein-like blinking	11	0	0	1.0223721567	0.1336770322	0	0	0	0	N	27.9801820526	10	10	thetaT	0.7594211296	0.2	0.2	tauT	100	100	100	f1	0.5779660101	1	1	tauD1	100	500	500	alpha1	1.1346748218	1	1	tauD2	582599.380386981	5000	5000	alpha2	1.9999969603	1	1	kappa	5.5	5.5	5.5	offset	0	0	0		0	0	0		0	0	0		0	0	0		0	0	0		0	0	0		0	0	0		0	0	0		0	0	0		0	0	0		0	0	0		0	0	0		0	0	0		0	0	0		0	0	0		0	0	0
30	TR1_3_W0001_P0022_T0001_R1_P1_K1_Ch2.zen	Z:\AntonioP_elltier1\CelllinesImaging\MitoSysPipelines\170419_MAD2L1gfpcM11-F11\MitoSys2\Calibration\mEGFPC1\DE_W0006_P0001\DE_2_W0006_P0001_T0001\TR1_W0001_P0022\TR1_3_W0001_P0022_T0001_R1_P1_K1_Ch2.zen	FA/ISS	20000	29.999	1	x	1	0	0	29.94	100000	2000	Scale	0	2.393	0	0.01	0	0	0.01	0	0	1	1	0	1	2.161	0	0	1	2.161	0	1.0561	1	1	0.0133	1	1	1	1	1	0.0057	1	1	0.034407	0.090649	0	0	0	0	0.077753	0.19553	0	0	0	0	0	two-component anomalous diffusion with fluorescent protein-like blinking	11	0	0	1.0353479774	-0.0542039835	0	0	0	0	N	54277.8275328912	10	10	thetaT	0.1854292427	0.2	0.2	tauT	100	100	100	f1	0.9435410519	1	1	tauD1	20362.2598487225	500	500	alpha1	1.0467431279	1	1	tauD2	27631.2140163303	5000	5000	alpha2	1.1058901355	1	1	kappa	5.5	5.5	5.5	offset	0	0	0		0	0	0		0	0	0		0	0	0		0	0	0		0	0	0		0	0	0		0	0	0		0	0	0		0	0	0		0	0	0		0	0	0		0	0	0		0	0	0		0	0	0		0	0	0
31	TR1_3_W0001_P0022_T0001_R1_P2_K1_Ch2.zen	Z:\AntonioP_elltier1\CelllinesImaging\MitoSysPipelines\170419_MAD2L1gfpcM11-F11\MitoSys2\Calibration\mEGFPC1\DE_W0006_P0001\DE_2_W0006_P0001_T0001\TR1_W0001_P0022\TR1_3_W0001_P0022_T0001_R1_P2_K1_Ch2.zen	FA/ISS	20000	30	1	x	1	0	0	29.94	100000	2000	Scale	0	2.393	0	0.01	0	0	0.01	0	0	1	1	0	1	2.947	0	0	1	2.947	0	1.3606	1	1	0.0267	1	1	1	1	1	0.0666	1	1	0.050304	0.029198	0	0	0	0	0.14248	0.084941	0	0	0	0	0	two-component anomalous diffusion with fluorescent protein-like blinking	11	0	0	1.1100287375	0.077623668	0	0	0	0	N	35.4153255158	10	10	thetaT	0.9583925155	0.2	0.2	tauT	100	100	100	f1	0.4453113093	1	1	tauD1	100.0000057926	500	500	alpha1	0.5000113229	1	1	tauD2	1660841.10940976	5000	5000	alpha2	1.9999907751	1	1	kappa	5.5	5.5	5.5	offset	0	0	0		0	0	0		0	0	0		0	0	0		0	0	0		0	0	0		0	0	0		0	0	0		0	0	0		0	0	0		0	0	0		0	0	0		0	0	0		0	0	0		0	0	0		0	0	0
32	TR1_3_W0001_P0025_T0001_R1_P1_K1_Ch2.zen	Z:\AntonioP_elltier1\CelllinesImaging\MitoSysPipelines\170419_MAD2L1gfpcM11-F11\MitoSys2\Calibration\mEGFPC1\DE_W0007_P0001\DE_2_W0007_P0001_T0001\TR1_W0001_P0025\TR1_3_W0001_P0025_T0001_R1_P1_K1_Ch2.zen	FA/ISS	20000	30	1		1	0	0	29.94	100000	2000	Scale	0	2.393	0	0.01	0	0	0.01	0	0	1	1	0	1	531.169	0	0	1	531.169	0	1.0081	1	1	0.991	1	1	1	1	1	0.9991	1	1	0.0028982	0.0003398	0	0	0	0	1.5389	0.17578	0	0	0	0	0	two-component anomalous diffusion with fluorescent protein-like blinking	11	0	0	0.9217493456	0.9965461424	0	0	0	0	N	334.7495536497	10	10	thetaT	0.1427741238	0.2	0.2	tauT	100	100	100	f1	0.9825092462	1	1	tauD1	322.9967840412	500	500	alpha1	1.0037676566	1	1	tauD2	2412.9412240945	5000	5000	alpha2	0.5141347927	1	1	kappa	5.5	5.5	5.5	offset	0	0	0		0	0	0		0	0	0		0	0	0		0	0	0		0	0	0		0	0	0		0	0	0		0	0	0		0	0	0		0	0	0		0	0	0		0	0	0		0	0	0		0	0	0		0	0	0
33	TR1_3_W0001_P0025_T0001_R1_P2_K1_Ch2.zen	Z:\AntonioP_elltier1\CelllinesImaging\MitoSysPipelines\170419_MAD2L1gfpcM11-F11\MitoSys2\Calibration\mEGFPC1\DE_W0007_P0001\DE_2_W0007_P0001_T0001\TR1_W0001_P0025\TR1_3_W0001_P0025_T0001_R1_P2_K1_Ch2.zen	FA/ISS	20000	30	1	x	1	0	0	29.94	100000	2000	Scale	0	2.393	0	0.01	0	0	0.01	0	0	1	1	0	1	388.99	0	0	1	388.99	0	1.0081	1	1	0.9877	1	1	1	1	1	0.9958	1	1	0.0046169	0.00047449	0	0	0	0	1.7963	0.18818	0	0	0	0	0	two-component anomalous diffusion with fluorescent protein-like blinking	11	0	0	1.0259355723	0.9970592378	0	0	0	0	N	210.8385425237	10	10	thetaT	0.1838838156	0.2	0.2	tauT	100	100	100	f1	0.9570842889	1	1	tauD1	339.4071431986	500	500	alpha1	1.1999674092	1	1	tauD2	12148.7127294055	5000	5000	alpha2	1.2120797333	1	1	kappa	5.5	5.5	5.5	offset	0	0	0		0	0	0		0	0	0		0	0	0		0	0	0		0	0	0		0	0	0		0	0	0		0	0	0		0	0	0		0	0	0		0	0	0		0	0	0		0	0	0		0	0	0		0	0	0
34	TR1_3_W0001_P0026_T0001_R1_P1_K1_Ch2.zen	Z:\AntonioP_elltier1\CelllinesImaging\MitoSysPipelines\170419_MAD2L1gfpcM11-F11\MitoSys2\Calibration\mEGFPC1\DE_W0007_P0001\DE_2_W0007_P0001_T0001\TR1_W0001_P0026\TR1_3_W0001_P0026_T0001_R1_P1_K1_Ch2.zen	FA/ISS	20000	30	1		1	0	0	29.94	100000	2000	Scale	0	2.393	0	0.01	0	0	0.01	0	0	1	1	0	1	132.14	0	0	1	132.14	0	1.0176	1	1	0.9641	1	1	1	1	1	0.9814	1	1	0.011906	0.00054384	0	0	0	0	1.5709	0.071656	0	0	0	0	0	two-component anomalous diffusion with fluorescent protein-like blinking	11	0	0	1.1061384257	0.9947189445	0	0	0	0	N	84.9042018608	10	10	thetaT	0.193246215	0.2	0.2	tauT	100	100	100	f1	0.5885357096	1	1	tauD1	315.3071700011	500	500	alpha1	0.7981255029	1	1	tauD2	558.3522928959	5000	5000	alpha2	1.7573638072	1	1	kappa	5.5	5.5	5.5	offset	0	0	0		0	0	0		0	0	0		0	0	0		0	0	0		0	0	0		0	0	0		0	0	0		0	0	0		0	0	0		0	0	0		0	0	0		0	0	0		0	0	0		0	0	0		0	0	0
35	TR1_3_W0001_P0026_T0001_R1_P2_K1_Ch2.zen	Z:\AntonioP_elltier1\CelllinesImaging\MitoSysPipelines\170419_MAD2L1gfpcM11-F11\MitoSys2\Calibration\mEGFPC1\DE_W0007_P0001\DE_2_W0007_P0001_T0001\TR1_W0001_P0026\TR1_3_W0001_P0026_T0001_R1_P2_K1_Ch2.zen	FA/ISS	20000	30	1		1	0	0	29.94	100000	2000	Scale	0	2.393	0	0.01	0	0	0.01	0	0	1	1	0	1	132.708	0	0	1	132.708	0	0.984	1	1	0.9644	1	1	1	1	1	0.9487	1	1	0.012736	0.00088473	0	0	0	0	1.6947	0.10262	0	0	0	0	0	two-component anomalous diffusion with fluorescent protein-like blinking	11	0	0	1.0074610794	0.9955228059	0	0	0	0	N	75.2324935071	10	10	thetaT	0.1867727987	0.2	0.2	tauT	100	100	100	f1	0.940453745	1	1	tauD1	447.1963329424	500	500	alpha1	1.0497787305	1	1	tauD2	789.9552331455	5000	5000	alpha2	0.7056404178	1	1	kappa	5.5	5.5	5.5	offset	0	0	0		0	0	0		0	0	0		0	0	0		0	0	0		0	0	0		0	0	0		0	0	0		0	0	0		0	0	0		0	0	0		0	0	0		0	0	0		0	0	0		0	0	0		0	0	0
36	TR1_3_W0001_P0027_T0001_R1_P1_K1_Ch2.zen	Z:\AntonioP_elltier1\CelllinesImaging\MitoSysPipelines\170419_MAD2L1gfpcM11-F11\MitoSys2\Calibration\mEGFPC1\DE_W0007_P0001\DE_2_W0007_P0001_T0001\TR1_W0001_P0027\TR1_3_W0001_P0027_T0001_R1_P1_K1_Ch2.zen	FA/ISS	20000	30	1		1	0	0	29.94	100000	2000	Scale	0	2.393	0	0.01	0	0	0.01	0	0	1	1	0	1	365.965	0	0	1	365.965	0	1.0153	1	1	0.987	1	1	1	1	1	1.0022	1	1	0.0041682	0.00022056	0	0	0	0	1.5254	0.080144	0	0	0	0	0	two-component anomalous diffusion with fluorescent protein-like blinking	11	0	0	1.1753478292	0.9934852217	0	0	0	0	N	241.068973273	10	10	thetaT	0.1944245003	0.2	0.2	tauT	100	100	100	f1	0.9953391597	1	1	tauD1	435.805551151	500	500	alpha1	1.0668821678	1	1	tauD2	3924.0760162274	5000	5000	alpha2	0.5195109668	1	1	kappa	5.5	5.5	5.5	offset	0	0	0		0	0	0		0	0	0		0	0	0		0	0	0		0	0	0		0	0	0		0	0	0		0	0	0		0	0	0		0	0	0		0	0	0		0	0	0		0	0	0		0	0	0		0	0	0
37	TR1_3_W0001_P0027_T0001_R1_P2_K1_Ch2.zen	Z:\AntonioP_elltier1\CelllinesImaging\MitoSysPipelines\170419_MAD2L1gfpcM11-F11\MitoSys2\Calibration\mEGFPC1\DE_W0007_P0001\DE_2_W0007_P0001_T0001\TR1_W0001_P0027\TR1_3_W0001_P0027_T0001_R1_P2_K1_Ch2.zen	FA/ISS	20000	30	1	x	1	0	0	29.94	100000	2000	Scale	0	2.393	0	0.01	0	0	0.01	0	0	1	1	0	1	285.075	0	0	1	285.075	0	1.147	1	1	0.9831	1	1	1	1	1	1.1288	1	1	0.0051246	0.0017954	0	0	0	0	1.4604	0.52434	0	0	0	0	0	two-component anomalous diffusion with fluorescent protein-like blinking	11	0	0	1.6008008267	0.9932616841	0	0	0	0	N	213.6186808386	10	10	thetaT	0.1992533105	0.2	0.2	tauT	100	100	100	f1	0.9388473743	1	1	tauD1	375.9156105102	500	500	alpha1	1.11706922	1	1	tauD2	30814.2557794878	5000	5000	alpha2	1.7154199586	1	1	kappa	5.5	5.5	5.5	offset	0	0	0		0	0	0		0	0	0		0	0	0		0	0	0		0	0	0		0	0	0		0	0	0		0	0	0		0	0	0		0	0	0		0	0	0		0	0	0		0	0	0		0	0	0		0	0	0
38	TR1_3_W0001_P0028_T0001_R1_P1_K1_Ch2.zen	Z:\AntonioP_elltier1\CelllinesImaging\MitoSysPipelines\170419_MAD2L1gfpcM11-F11\MitoSys2\Calibration\mEGFPC1\DE_W0007_P0001\DE_2_W0007_P0001_T0001\TR1_W0001_P0028\TR1_3_W0001_P0028_T0001_R1_P1_K1_Ch2.zen	FA/ISS	20000	30	1		1	0	0	29.94	100000	2000	Scale	0	2.393	0	0.01	0	0	0.01	0	0	1	1	0	1	385.011	0	0	1	385.011	0	1.0037	1	1	0.9876	1	1	1	1	1	0.9913	1	1	0.0036181	0.00073333	0	0	0	0	1.3926	0.28093	0	0	0	0	0	two-component anomalous diffusion with fluorescent protein-like blinking	11	0	0	1.0425179589	0.9961048844	0	0	0	0	N	267.8354401009	10	10	thetaT	0.1249333064	0.2	0.2	tauT	100	100	100	f1	0.9998461587	1	1	tauD1	316.9313211464	500	500	alpha1	1.0370525004	1	1	tauD2	500.2947261125	5000	5000	alpha2	1.9999453075	1	1	kappa	5.5	5.5	5.5	offset	0	0	0		0	0	0		0	0	0		0	0	0		0	0	0		0	0	0		0	0	0		0	0	0		0	0	0		0	0	0		0	0	0		0	0	0		0	0	0		0	0	0		0	0	0		0	0	0
39	TR1_3_W0001_P0028_T0001_R1_P2_K1_Ch2.zen	Z:\AntonioP_elltier1\CelllinesImaging\MitoSysPipelines\170419_MAD2L1gfpcM11-F11\MitoSys2\Calibration\mEGFPC1\DE_W0007_P0001\DE_2_W0007_P0001_T0001\TR1_W0001_P0028\TR1_3_W0001_P0028_T0001_R1_P2_K1_Ch2.zen	FA/ISS	20000	30	1	x	1	0	0	29.94	100000	2000	Scale	0	2.393	0	0.01	0	0	0.01	0	0	1	1	0	1	291.012	0	0	1	291.012	0	0.9329	1	1	0.9839	1	1	1	1	1	0.9173	1	1	0.0066147	0.0010539	0	0	0	0	1.9564	0.28877	0	0	0	0	0	two-component anomalous diffusion with fluorescent protein-like blinking	11	0	0	0.1822712551	0.9943880664	0	0	0	0	N	183.7643412438	10	10	thetaT	0.1821905697	0.2	0.2	tauT	100	100	100	f1	0.8215982739	1	1	tauD1	441.1240606304	500	500	alpha1	1.0666588338	1	1	tauD2	268698.285704174	5000	5000	alpha2	1.4068026952	1	1	kappa	5.5	5.5	5.5	offset	0	0	0		0	0	0		0	0	0		0	0	0		0	0	0		0	0	0		0	0	0		0	0	0		0	0	0		0	0	0		0	0	0		0	0	0		0	0	0		0	0	0		0	0	0		0	0	0
40	0001_R1_P1_K1_Ch2.zen	Z:\AntonioP_elltier1\CelllinesImaging\MitoSysPipelines\170419_MAD2L1gfpcM11-F11\MitoSys2\Calibration\WT\0001_R1_P1_K1_Ch2.zen	FA/ISS	20000	30	1		1	0	0	29.94	100000	2000	Scale	0	2.393	0	0.01	0	0	0.01	0	0	1	1	0	1	2.091	0	0	1	2.091	0	1.0868	1	1	0.0261	1	1	1	1	1	0.0111	1	1	0.029599	0.035902	0	0	0	0	0.061148	0.073265	0	0	0	0	0	two-component anomalous diffusion with fluorescent protein-like blinking	11	0	0	1.1459173314	-0.048511617	0	0	0	0	N	357.7141290816	10	10	thetaT	0.0010016019	0.2	0.2	tauT	100	100	100	f1	0.8842361419	1	1	tauD1	1325.9289684707	500	500	alpha1	1.2	1	1	tauD2	249868.726528692	5000	5000	alpha2	1.9984118246	1	1	kappa	5.5	5.5	5.5	offset	0	0	0		0	0	0		0	0	0		0	0	0		0	0	0		0	0	0		0	0	0		0	0	0		0	0	0		0	0	0		0	0	0		0	0	0		0	0	0		0	0	0		0	0	0		0	0	0
41	0001_R1_P2_K1_Ch2.zen	Z:\AntonioP_elltier1\CelllinesImaging\MitoSysPipelines\170419_MAD2L1gfpcM11-F11\MitoSys2\Calibration\WT\0001_R1_P2_K1_Ch2.zen	FA/ISS	20000	30.001	1		1	0	0	29.94	100000	2000	Scale	0	2.393	0	0.01	0	0	0.01	0	0	1	1	0	1	2.229	0	0	1	2.229	0	1.0477	1	1	0.0073	1	1	1	1	1	0.0019	1	1	-0.013533	0.051078	0	0	0	0	-0.026713	0.11506	0	0	0	0	0	two-component anomalous diffusion with fluorescent protein-like blinking	11	0	0	0.7343741304	0.0183345421	0	0	0	0	N	129.9347567749	10	10	thetaT	0.0010090827	0.2	0.2	tauT	100	100	100	f1	6.78965819797796E-009	1	1	tauD1	49999.9999999997	500	500	alpha1	1.1999387042	1	1	tauD2	221535.290298335	5000	5000	alpha2	1.9999993756	1	1	kappa	5.5	5.5	5.5	offset	0	0	0		0	0	0		0	0	0		0	0	0		0	0	0		0	0	0		0	0	0		0	0	0		0	0	0		0	0	0		0	0	0		0	0	0		0	0	0		0	0	0		0	0	0		0	0	0
42	0002_R1_P1_K1_Ch2.zen	Z:\AntonioP_elltier1\CelllinesImaging\MitoSysPipelines\170419_MAD2L1gfpcM11-F11\MitoSys2\Calibration\WT\0002_R1_P1_K1_Ch2.zen	FA/ISS	20000	30	1		1	0	0	29.94	100000	2000	Scale	0	2.393	0	0.01	0	0	0.01	0	0	1	1	0	1	1.906	0	0	1	1.906	0	1.0875	1	1	0.0724	1	1	1	1	1	0.0464	1	1	-0.0085696	0.067333	0	0	0	0	-0.015107	0.12674	0	0	0	0	0	two-component anomalous diffusion with fluorescent protein-like blinking	11	0	0	0.9809817113	-0.0565929981	0	0	0	0	N	72891.5560997521	10	10	thetaT	0.176511741	0.2	0.2	tauT	100	100	100	f1	0.999955538	1	1	tauD1	1422.5514718151	500	500	alpha1	1.1195320311	1	1	tauD2	19230.3314038292	5000	5000	alpha2	1.0902527776	1	1	kappa	5.5	5.5	5.5	offset	0	0	0		0	0	0		0	0	0		0	0	0		0	0	0		0	0	0		0	0	0		0	0	0		0	0	0		0	0	0		0	0	0		0	0	0		0	0	0		0	0	0		0	0	0		0	0	0
43	0002_R1_P2_K1_Ch2.zen	Z:\AntonioP_elltier1\CelllinesImaging\MitoSysPipelines\170419_MAD2L1gfpcM11-F11\MitoSys2\Calibration\WT\0002_R1_P2_K1_Ch2.zen	FA/ISS	20000	30	1		1	0	0	29.94	100000	2000	Scale	0	2.393	0	0.01	0	0	0.01	0	0	1	1	0	1	3.628	0	0	1	3.628	0	1.5095	1	1	0.1174	1	1	1	1	1	0.2192	1	1	0.016945	0.088053	0	0	0	0	0.049816	0.30064	0	0	0	0	0	two-component anomalous diffusion with fluorescent protein-like blinking	11	0	0	1.499797635	0.0657619976	0	0	0	0	N	114.6546213283	10	10	thetaT	0.4781918027	0.2	0.2	tauT	100	100	100	f1	0.0366859117	1	1	tauD1	25391.2086002173	500	500	alpha1	1.1999674184	1	1	tauD2	22878.6067561456	5000	5000	alpha2	1.4914453201	1	1	kappa	5.5	5.5	5.5	offset	0	0	0		0	0	0		0	0	0		0	0	0		0	0	0		0	0	0		0	0	0		0	0	0		0	0	0		0	0	0		0	0	0		0	0	0		0	0	0		0	0	0		0	0	0		0	0	0
44	0003_R1_P1_K1_Ch2.zen	Z:\AntonioP_elltier1\CelllinesImaging\MitoSysPipelines\170419_MAD2L1gfpcM11-F11\MitoSys2\Calibration\WT\0003_R1_P1_K1_Ch2.zen	FA/ISS	20000	30	1		1	0	0	29.94	100000	2000	Scale	0	2.393	0	0.01	0	0	0.01	0	0	1	1	0	1	1.774	0	0	1	1.774	0	1.1143	1	1	0.1311	1	1	1	1	1	0.0868	1	1	0.073139	0.059932	0	0	0	0	0.12859	0.10649	0	0	0	0	0	two-component anomalous diffusion with fluorescent protein-like blinking	11	0	0	1.1487369221	0.1376960968	0	0	0	0	N	20.7306792792	10	10	thetaT	0.8982801983	0.2	0.2	tauT	100	100	100	f1	0.9942046919	1	1	tauD1	100	500	500	alpha1	0.7175856103	1	1	tauD2	66174.1356927352	5000	5000	alpha2	1.9999997595	1	1	kappa	5.5	5.5	5.5	offset	0	0	0		0	0	0		0	0	0		0	0	0		0	0	0		0	0	0		0	0	0		0	0	0		0	0	0		0	0	0		0	0	0		0	0	0		0	0	0		0	0	0		0	0	0		0	0	0
45	0003_R1_P2_K1_Ch2.zen	Z:\AntonioP_elltier1\CelllinesImaging\MitoSysPipelines\170419_MAD2L1gfpcM11-F11\MitoSys2\Calibration\WT\0003_R1_P2_K1_Ch2.zen	FA/ISS	20000	30	1		1	0	0	29.94	100000	2000	Scale	0	2.393	0	0.01	0	0	0.01	0	0	1	1	0	1	2.924	0	0	1	2.924	0	1.1585	1	1	0.0323	1	1	1	1	1	0.0558	1	1	0.017761	0.038283	0	0	0	0	0.048271	0.10918	0	0	0	0	0	two-component anomalous diffusion with fluorescent protein-like blinking	11	0	0	1.1071466972	0.1034548095	0	0	0	0	N	73.0856877665	10	10	thetaT	0.2313368839	0.2	0.2	tauT	100	100	100	f1	0.9154080049	1	1	tauD1	100.1748103075	500	500	alpha1	1.1109361672	1	1	tauD2	77710.8560966355	5000	5000	alpha2	1.1916002864	1	1	kappa	5.5	5.5	5.5	offset	0	0	0		0	0	0		0	0	0		0	0	0		0	0	0		0	0	0		0	0	0		0	0	0		0	0	0		0	0	0		0	0	0		0	0	0		0	0	0		0	0	0		0	0	0		0	0	0
46	0004_R1_P1_K1_Ch2.zen	Z:\AntonioP_elltier1\CelllinesImaging\MitoSysPipelines\170419_MAD2L1gfpcM11-F11\MitoSys2\Calibration\WT\0004_R1_P1_K1_Ch2.zen	FA/ISS	20000	29.999	1		1	0	0	29.94	100000	2000	Scale	0	2.393	0	0.01	0	0	0.01	0	0	1	1	0	1	1.998	0	0	1	1.998	0	1.1271	1	1	0.0449	1	1	1	1	1	0.0158	1	1	-0.0049047	0.09482	0	0	0	0	-0.015051	0.19057	0	0	0	0	0	two-component anomalous diffusion with fluorescent protein-like blinking	11	0	0	1.0591362494	0.1015963631	0	0	0	0	N	31.451312862	10	10	thetaT	1	0.2	0.2	tauT	100	100	100	f1	0.9965734139	1	1	tauD1	231.9549581539	500	500	alpha1	1.2	1	1	tauD2	500.0000000005	5000	5000	alpha2	1.3863957799	1	1	kappa	5.5	5.5	5.5	offset	0	0	0		0	0	0		0	0	0		0	0	0		0	0	0		0	0	0		0	0	0		0	0	0		0	0	0		0	0	0		0	0	0		0	0	0		0	0	0		0	0	0		0	0	0		0	0	0
47	0004_R1_P2_K1_Ch2.zen	Z:\AntonioP_elltier1\CelllinesImaging\MitoSysPipelines\170419_MAD2L1gfpcM11-F11\MitoSys2\Calibration\WT\0004_R1_P2_K1_Ch2.zen	FA/ISS	20000	30	1		1	0	0	29.94	100000	2000	Scale	0	2.393	0	0.01	0	0	0.01	0	0	1	1	0	1	4.13	0	0	1	4.13	0	1.2688	1	1	0.1733	1	1	1	1	1	0.2706	1	1	0.0030117	0.02487	0	0	0	0	0.012519	0.10493	0	0	0	0	0	two-component anomalous diffusion with fluorescent protein-like blinking	11	0	0	0.8707622427	0.1725696242	0	0	0	0	N	85.3363004821	10	10	thetaT	0.1749050007	0.2	0.2	tauT	100	100	100	f1	0.8969528975	1	1	tauD1	268.8717517485	500	500	alpha1	1.1941982601	1	1	tauD2	297403.655170959	5000	5000	alpha2	1.6857510793	1	1	kappa	5.5	5.5	5.5	offset	0	0	0		0	0	0		0	0	0		0	0	0		0	0	0		0	0	0		0	0	0		0	0	0		0	0	0		0	0	0		0	0	0		0	0	0		0	0	0		0	0	0		0	0	0		0	0	0
48	0005_R1_P1_K1_Ch2.zen	Z:\AntonioP_elltier1\CelllinesImaging\MitoSysPipelines\170419_MAD2L1gfpcM11-F11\MitoSys2\Calibration\WT\0005_R1_P1_K1_Ch2.zen	FA/ISS	20000	30	1		1	0	0	29.94	100000	2000	Scale	0	2.393	0	0.01	0	0	0.01	0	0	1	1	0	1	1.915	0	0	1	1.915	0	1.0966	1	1	0.0673	1	1	1	1	1	0.0403	1	1	0.012302	0.070298	0	0	0	0	0.026892	0.1381	0	0	0	0	0	two-component anomalous diffusion with fluorescent protein-like blinking	11	0	0	1.2734010235	-0.0334333426	0	0	0	0	N	85.7411459442	10	10	thetaT	0.5298932927	0.2	0.2	tauT	100	100	100	f1	0.9994000946	1	1	tauD1	169.9077380737	500	500	alpha1	0.5838286214	1	1	tauD2	388274.995748744	5000	5000	alpha2	1.3518808763	1	1	kappa	5.5	5.5	5.5	offset	0	0	0		0	0	0		0	0	0		0	0	0		0	0	0		0	0	0		0	0	0		0	0	0		0	0	0		0	0	0		0	0	0		0	0	0		0	0	0		0	0	0		0	0	0		0	0	0
49	0005_R1_P2_K1_Ch2.zen	Z:\AntonioP_elltier1\CelllinesImaging\MitoSysPipelines\170419_MAD2L1gfpcM11-F11\MitoSys2\Calibration\WT\0005_R1_P2_K1_Ch2.zen	FA/ISS	20000	29.999	1		1	0	0	29.94	100000	2000	Scale	0	2.393	0	0.01	0	0	0.01	0	0	1	1	0	1	2.426	0	0	1	2.426	0	0.9261	1	1	0.0998	1	1	1	1	1	0.0571	1	1	0.046142	0.23636	0	0	0	0	0.14018	0.63823	0	0	0	0	0	two-component anomalous diffusion with fluorescent protein-like blinking	11	0	0	1.4935623443	0.1862254941	0	0	0	0	N	26.1912937345	10	10	thetaT	0.5418109758	0.2	0.2	tauT	100	100	100	f1	0.4921965158	1	1	tauD1	100	500	500	alpha1	1.1999976432	1	1	tauD2	28576.8296180745	5000	5000	alpha2	1.6508250635	1	1	kappa	5.5	5.5	5.5	offset	0	0	0		0	0	0		0	0	0		0	0	0		0	0	0		0	0	0		0	0	0		0	0	0		0	0	0		0	0	0		0	0	0		0	0	0		0	0	0		0	0	0		0	0	0		0	0	0
50	0006_R1_P1_K1_Ch2.zen	Z:\AntonioP_elltier1\CelllinesImaging\MitoSysPipelines\170419_MAD2L1gfpcM11-F11\MitoSys2\Calibration\WT\0006_R1_P1_K1_Ch2.zen	FA/ISS	20000	29.999	1		1	0	0	29.94	100000	2000	Scale	0	2.393	0	0.01	0	0	0.01	0	0	1	1	0	1	1.682	0	0	1	1.682	0	1.0695	1	1	0.2602	1	1	1	1	1	0.1955	1	1	0.07002	0.17088	0	0	0	0	0.11874	0.26654	0	0	0	0	0	two-component anomalous diffusion with fluorescent protein-like blinking	11	0	0	1.1323248392	0.3975721895	0	0	0	0	N	12.9476124963	10	10	thetaT	0.9999854467	0.2	0.2	tauT	100	100	100	f1	0.9180950588	1	1	tauD1	486.3095784327	500	500	alpha1	0.5007528826	1	1	tauD2	5845.467886509	5000	5000	alpha2	1.3775079841	1	1	kappa	5.5	5.5	5.5	offset	0	0	0		0	0	0		0	0	0		0	0	0		0	0	0		0	0	0		0	0	0		0	0	0		0	0	0		0	0	0		0	0	0		0	0	0		0	0	0		0	0	0		0	0	0		0	0	0
51	0006_R1_P2_K1_Ch2.zen	Z:\AntonioP_elltier1\CelllinesImaging\MitoSysPipelines\170419_MAD2L1gfpcM11-F11\MitoSys2\Calibration\WT\0006_R1_P2_K1_Ch2.zen	FA/ISS	20000	29.999	1		1	0	0	29.94	100000	2000	Scale	0	2.393	0	0.01	0	0	0.01	0	0	1	1	0	1	2.007	0	0	1	2.007	0	1.1742	1	1	0.0532	1	1	1	1	1	0.0074	1	1	-0.019347	0.051007	0	0	0	0	-0.044182	0.10316	0	0	0	0	0	two-component anomalous diffusion with fluorescent protein-like blinking	11	0	0	1.1855295342	0.0354382999	0	0	0	0	N	41.0951521065	10	10	thetaT	1	0.2	0.2	tauT	100	100	100	f1	0.999987076	1	1	tauD1	1299.6771533039	500	500	alpha1	1.2	1	1	tauD2	3275.3817773978	5000	5000	alpha2	1.2866720066	1	1	kappa	5.5	5.5	5.5	offset	0	0	0		0	0	0		0	0	0		0	0	0		0	0	0		0	0	0		0	0	0		0	0	0		0	0	0		0	0	0		0	0	0		0	0	0		0	0	0		0	0	0		0	0	0		0	0	0
52	TR1_5_W0001_P0003_T0040_R1_P1_K1_Ch2.zen	Z:\AntonioP_elltier1\CelllinesImaging\MitoSysPipelines\170419_MAD2L1gfpcM11-F11\MitoSys2\LSM\DE_W0004_P0001\DE_2_W0004_P0001_T0005\TR1_W0001_P0003\TR1_5_W0001_P0003_T0040_R1_P1_K1_Ch2.zen	FA/ISS	20000	30	1		1	0	0	29.94	100000	2000	Scale	0	2.393	0	0.01	0	0	0.01	0	0	1	1	0	1	41.851	0	0	1	41.851	0	1.0829	1	1	0.8878	1	1	1	1	1	0.9659	1	1	0.041136	0.0013729	0	0	0	0	1.7033	0.032999	0	0	0	0	0	two-component anomalous diffusion with fluorescent protein-like blinking	11	0	0	0.965908997	0.9928455353	0	0	0	0	N	25.0343024228	10	10	thetaT	0.1958598266	0.2	0.2	tauT	100	100	100	f1	0.9701322867	1	1	tauD1	1399.1941924119	500	500	alpha1	0.979847643	1	1	tauD2	151196.808433943	5000	5000	alpha2	0.9919693594	1	1	kappa	5.5	5.5	5.5	offset	0	0	0		0	0	0		0	0	0		0	0	0		0	0	0		0	0	0		0	0	0		0	0	0		0	0	0		0	0	0		0	0	0		0	0	0		0	0	0		0	0	0		0	0	0		0	0	0
53	TR1_5_W0001_P0003_T0040_R1_P2_K1_Ch2.zen	Z:\AntonioP_elltier1\CelllinesImaging\MitoSysPipelines\170419_MAD2L1gfpcM11-F11\MitoSys2\LSM\DE_W0004_P0001\DE_2_W0004_P0001_T0005\TR1_W0001_P0003\TR1_5_W0001_P0003_T0040_R1_P2_K1_Ch2.zen	FA/ISS	20000	30	1		1	0	0	29.94	100000	2000	Scale	0	2.393	0	0.01	0	0	0.01	0	0	1	1	0	1	40.518	0	0	1	40.518	0	1.0527	1	1	0.8851	1	1	1	1	1	0.9346	1	1	0.030382	0.0053913	0	0	0	0	1.2273	0.21158	0	0	0	0	0	two-component anomalous diffusion with fluorescent protein-like blinking	11	0	0	0.8016581537	0.9977566583	0	0	0	0	N	31.1518373105	10	10	thetaT	0.1127506137	0.2	0.2	tauT	100	100	100	f1	0.8716936978	1	1	tauD1	1076.0880519721	500	500	alpha1	1.0957285884	1	1	tauD2	11697.6508839807	5000	5000	alpha2	1.8881267703	1	1	kappa	5.5	5.5	5.5	offset	0	0	0		0	0	0		0	0	0		0	0	0		0	0	0		0	0	0		0	0	0		0	0	0		0	0	0		0	0	0		0	0	0		0	0	0		0	0	0		0	0	0		0	0	0		0	0	0
54	TR1_5_W0001_P0003_T0040_R1_P3_K1_Ch2.zen	Z:\AntonioP_elltier1\CelllinesImaging\MitoSysPipelines\170419_MAD2L1gfpcM11-F11\MitoSys2\LSM\DE_W0004_P0001\DE_2_W0004_P0001_T0005\TR1_W0001_P0003\TR1_5_W0001_P0003_T0040_R1_P3_K1_Ch2.zen	FA/ISS	20000	30	1		1	0	0	29.94	100000	2000	Scale	0	2.393	0	0.01	0	0	0.01	0	0	1	1	0	1	66.519	0	0	1	66.519	0	1.0484	1	1	0.9292	1	1	1	1	1	0.9758	1	1	0.028729	0.0016795	0	0	0	0	1.9056	0.10453	0	0	0	0	0	two-component anomalous diffusion with fluorescent protein-like blinking	11	0	0	0.8025967315	0.9976695321	0	0	0	0	N	34.0380180421	10	10	thetaT	0.1904954673	0.2	0.2	tauT	100	100	100	f1	0.837478201	1	1	tauD1	507.5320792921	500	500	alpha1	1.1468020272	1	1	tauD2	11461.2286912002	5000	5000	alpha2	1.2437511516	1	1	kappa	5.5	5.5	5.5	offset	0	0	0		0	0	0		0	0	0		0	0	0		0	0	0		0	0	0		0	0	0		0	0	0		0	0	0		0	0	0		0	0	0		0	0	0		0	0	0		0	0	0		0	0	0		0	0	0
55	TR1_5_W0001_P0003_T0040_R1_P4_K1_Ch2.zen	Z:\AntonioP_elltier1\CelllinesImaging\MitoSysPipelines\170419_MAD2L1gfpcM11-F11\MitoSys2\LSM\DE_W0004_P0001\DE_2_W0004_P0001_T0005\TR1_W0001_P0003\TR1_5_W0001_P0003_T0040_R1_P4_K1_Ch2.zen	FA/ISS	20000	30	1		1	0	0	29.94	100000	2000	Scale	0	2.393	0	0.01	0	0	0.01	0	0	1	1	0	1	68.11	0	0	1	68.11	0	1.0405	1	1	0.9312	1	1	1	1	1	0.9703	1	1	0.028048	0.0010037	0	0	0	0	1.9166	0.058625	0	0	0	0	0	two-component anomalous diffusion with fluorescent protein-like blinking	11	0	0	0.9317842902	0.9971477156	0	0	0	0	N	35.2180136888	10	10	thetaT	0.1964431676	0.2	0.2	tauT	100	100	100	f1	0.9585894218	1	1	tauD1	527.7481148099	500	500	alpha1	1.0413245365	1	1	tauD2	9957.134559841	5000	5000	alpha2	0.8597483565	1	1	kappa	5.5	5.5	5.5	offset	0	0	0		0	0	0		0	0	0		0	0	0		0	0	0		0	0	0		0	0	0		0	0	0		0	0	0		0	0	0		0	0	0		0	0	0		0	0	0		0	0	0		0	0	0		0	0	0
56	TR1_5_W0001_P0003_T0040_R1_P5_K1_Ch2.zen	Z:\AntonioP_elltier1\CelllinesImaging\MitoSysPipelines\170419_MAD2L1gfpcM11-F11\MitoSys2\LSM\DE_W0004_P0001\DE_2_W0004_P0001_T0005\TR1_W0001_P0003\TR1_5_W0001_P0003_T0040_R1_P5_K1_Ch2.zen	FA/ISS	20000	30	1		1	0	0	29.94	100000	2000	Scale	0	2.393	0	0.01	0	0	0.01	0	0	1	1	0	1	64.625	0	0	1	64.625	0	1.0882	1	1	0.9267	1	1	1	1	1	1.0115	1	1	0.032814	0.0035197	0	0	0	0	2.1074	0.2423	0	0	0	0	0	two-component anomalous diffusion with fluorescent protein-like blinking	11	0	0	0.6303837828	0.9965628142	0	0	0	0	N	31.3629052425	10	10	thetaT	0.1775312342	0.2	0.2	tauT	100	100	100	f1	0.8560933033	1	1	tauD1	407.7584978454	500	500	alpha1	1.1670620427	1	1	tauD2	6237.0969449155	5000	5000	alpha2	0.675778056	1	1	kappa	5.5	5.5	5.5	offset	0	0	0		0	0	0		0	0	0		0	0	0		0	0	0		0	0	0		0	0	0		0	0	0		0	0	0		0	0	0		0	0	0		0	0	0		0	0	0		0	0	0		0	0	0		0	0	0
57	TR1_5_W0001_P0003_T0040_R1_P6_K1_Ch2.zen	Z:\AntonioP_elltier1\CelllinesImaging\MitoSysPipelines\170419_MAD2L1gfpcM11-F11\MitoSys2\LSM\DE_W0004_P0001\DE_2_W0004_P0001_T0005\TR1_W0001_P0003\TR1_5_W0001_P0003_T0040_R1_P6_K1_Ch2.zen	FA/ISS	20000	30	1	x	1	0	0	29.94	100000	2000	Scale	0	2.393	0	0.01	0	0	0.01	0	0	1	1	0	1	5.163	0	0	1	5.163	0	1.1606	1	1	0.281	1	1	1	1	1	0.3626	1	1	0.051924	0.011811	0	0	0	0	0.2665	0.067221	0	0	0	0	0	two-component anomalous diffusion with fluorescent protein-like blinking	11	0	0	0.748914398	0.3992382329	0	0	0	0	N	28.9668541804	10	10	thetaT	0.1713064615	0.2	0.2	tauT	100	100	100	f1	0.9731711259	1	1	tauD1	100.0000015034	500	500	alpha1	0.5274490281	1	1	tauD2	1603286.9213564	5000	5000	alpha2	1.999999995	1	1	kappa	5.5	5.5	5.5	offset	0	0	0		0	0	0		0	0	0		0	0	0		0	0	0		0	0	0		0	0	0		0	0	0		0	0	0		0	0	0		0	0	0		0	0	0		0	0	0		0	0	0		0	0	0		0	0	0
58	TR1_5_W0001_P0007_T0040_R1_P1_K1_Ch2.zen	Z:\AntonioP_elltier1\CelllinesImaging\MitoSysPipelines\170419_MAD2L1gfpcM11-F11\MitoSys2\LSM\DE_W0006_P0001\DE_2_W0006_P0001_T0015\TR1_W0001_P0007\TR1_5_W0001_P0007_T0040_R1_P1_K1_Ch2.zen	FA/ISS	20000	30	1	x	1	0	0	29.94	100000	2000	Scale	0	2.393	0	0.01	0	0	0.01	0	0	1	1	0	1	68.131	0	0	1	68.131	0	0.9595	1	1	0.9306	1	1	1	1	1	0.8914	1	1	0.021545	0.0024384	0	0	0	0	1.4685	0.20829	0	0	0	0	0	two-component anomalous diffusion with fluorescent protein-like blinking	11	0	0	0.9347611624	0.9961961231	0	0	0	0	N	44.3322048036	10	10	thetaT	0.1804610897	0.2	0.2	tauT	100	100	100	f1	0.9505822077	1	1	tauD1	714.8473347021	500	500	alpha1	1.0896888247	1	1	tauD2	24028.5164571093	5000	5000	alpha2	0.8280950974	1	1	kappa	5.5	5.5	5.5	offset	0	0	0		0	0	0		0	0	0		0	0	0		0	0	0		0	0	0		0	0	0		0	0	0		0	0	0		0	0	0		0	0	0		0	0	0		0	0	0		0	0	0		0	0	0		0	0	0
59	TR1_5_W0001_P0007_T0040_R1_P2_K1_Ch2.zen	Z:\AntonioP_elltier1\CelllinesImaging\MitoSysPipelines\170419_MAD2L1gfpcM11-F11\MitoSys2\LSM\DE_W0006_P0001\DE_2_W0006_P0001_T0015\TR1_W0001_P0007\TR1_5_W0001_P0007_T0040_R1_P2_K1_Ch2.zen	FA/ISS	20000	30	1		1	0	0	29.94	100000	2000	Scale	0	2.393	0	0.01	0	0	0.01	0	0	1	1	0	1	67.004	0	0	1	67.004	0	1.0472	1	1	0.929	1	1	1	1	1	0.9745	1	1	0.032549	0.0012021	0	0	0	0	2.1555	0.096982	0	0	0	0	0	two-component anomalous diffusion with fluorescent protein-like blinking	11	0	0	0.6556901161	0.9980064725	0	0	0	0	N	31.4832961344	10	10	thetaT	0.1526458251	0.2	0.2	tauT	100	100	100	f1	0.9511536352	1	1	tauD1	535.7067249835	500	500	alpha1	1.0991704228	1	1	tauD2	27491.3302678297	5000	5000	alpha2	0.625734754	1	1	kappa	5.5	5.5	5.5	offset	0	0	0		0	0	0		0	0	0		0	0	0		0	0	0		0	0	0		0	0	0		0	0	0		0	0	0		0	0	0		0	0	0		0	0	0		0	0	0		0	0	0		0	0	0		0	0	0
60	TR1_5_W0001_P0007_T0040_R1_P3_K1_Ch2.zen	Z:\AntonioP_elltier1\CelllinesImaging\MitoSysPipelines\170419_MAD2L1gfpcM11-F11\MitoSys2\LSM\DE_W0006_P0001\DE_2_W0006_P0001_T0015\TR1_W0001_P0007\TR1_5_W0001_P0007_T0040_R1_P3_K1_Ch2.zen	FA/ISS	20000	30	1		1	0	0	29.94	100000	2000	Scale	0	2.393	0	0.01	0	0	0.01	0	0	1	1	0	1	70.306	0	0	1	70.306	0	1.0414	1	1	0.9326	1	1	1	1	1	0.9726	1	1	0.029497	0.0013147	0	0	0	0	2.0575	0.083646	0	0	0	0	0	two-component anomalous diffusion with fluorescent protein-like blinking	11	0	0	1.157977575	0.9976952632	0	0	0	0	N	32.8858165847	10	10	thetaT	0.2039216772	0.2	0.2	tauT	100	100	100	f1	0.9097917393	1	1	tauD1	575.4117877034	500	500	alpha1	1.0761272128	1	1	tauD2	14684.0600822782	5000	5000	alpha2	1.4848710653	1	1	kappa	5.5	5.5	5.5	offset	0	0	0		0	0	0		0	0	0		0	0	0		0	0	0		0	0	0		0	0	0		0	0	0		0	0	0		0	0	0		0	0	0		0	0	0		0	0	0		0	0	0		0	0	0		0	0	0
61	TR1_5_W0001_P0007_T0040_R1_P4_K1_Ch2.zen	Z:\AntonioP_elltier1\CelllinesImaging\MitoSysPipelines\170419_MAD2L1gfpcM11-F11\MitoSys2\LSM\DE_W0006_P0001\DE_2_W0006_P0001_T0015\TR1_W0001_P0007\TR1_5_W0001_P0007_T0040_R1_P4_K1_Ch2.zen	FA/ISS	20000	30	1		1	0	0	29.94	100000	2000	Scale	0	2.393	0	0.01	0	0	0.01	0	0	1	1	0	1	71.76	0	0	1	71.76	0	1.0628	1	1	0.9343	1	1	1	1	1	0.995	1	1	0.030528	0.0045713	0	0	0	0	2.184	0.31486	0	0	0	0	0	two-component anomalous diffusion with fluorescent protein-like blinking	11	0	0	0.936453049	0.9984065118	0	0	0	0	N	32.2510312653	10	10	thetaT	0.182630533	0.2	0.2	tauT	100	100	100	f1	0.9844032554	1	1	tauD1	494.9935529265	500	500	alpha1	1.0287893876	1	1	tauD2	39236.8860957645	5000	5000	alpha2	1.5680565983	1	1	kappa	5.5	5.5	5.5	offset	0	0	0		0	0	0		0	0	0		0	0	0		0	0	0		0	0	0		0	0	0		0	0	0		0	0	0		0	0	0		0	0	0		0	0	0		0	0	0		0	0	0		0	0	0		0	0	0
62	TR1_5_W0001_P0007_T0040_R1_P5_K1_Ch2.zen	Z:\AntonioP_elltier1\CelllinesImaging\MitoSysPipelines\170419_MAD2L1gfpcM11-F11\MitoSys2\LSM\DE_W0006_P0001\DE_2_W0006_P0001_T0015\TR1_W0001_P0007\TR1_5_W0001_P0007_T0040_R1_P5_K1_Ch2.zen	FA/ISS	20000	30	1	x	1	0	0	29.94	100000	2000	Scale	0	2.393	0	0.01	0	0	0.01	0	0	1	1	0	1	73.484	0	0	1	73.484	0	0.303	1	1	0.9274	1	1	1	1	1	0.2521	1	1	0.025981	0.01734	0	0	0	0	2.0196	0.78199	0	0	0	0	0	two-component anomalous diffusion with fluorescent protein-like blinking	11	0	0	1.0302749864	0.9958214058	0	0	0	0	N	39.5884306789	10	10	thetaT	0.2088520846	0.2	0.2	tauT	100	100	100	f1	0.9422692496	1	1	tauD1	458.6315465732	500	500	alpha1	1.1256822939	1	1	tauD2	17432.3203053351	5000	5000	alpha2	1.8567602764	1	1	kappa	5.5	5.5	5.5	offset	0	0	0		0	0	0		0	0	0		0	0	0		0	0	0		0	0	0		0	0	0		0	0	0		0	0	0		0	0	0		0	0	0		0	0	0		0	0	0		0	0	0		0	0	0		0	0	0
63	TR1_5_W0001_P0007_T0040_R1_P6_K1_Ch2.zen	Z:\AntonioP_elltier1\CelllinesImaging\MitoSysPipelines\170419_MAD2L1gfpcM11-F11\MitoSys2\LSM\DE_W0006_P0001\DE_2_W0006_P0001_T0015\TR1_W0001_P0007\TR1_5_W0001_P0007_T0040_R1_P6_K1_Ch2.zen	FA/ISS	20000	30	1	x	1	0	0	29.94	100000	2000	Scale	0	2.393	0	0.01	0	0	0.01	0	0	1	1	0	1	63.334	0	0	1	63.334	0	0.9821	1	1	0.9261	1	1	1	1	1	0.9088	1	1	0.029845	0.0042041	0	0	0	0	1.8964	0.25698	0	0	0	0	0	two-component anomalous diffusion with fluorescent protein-like blinking	11	0	0	0.7861779502	0.9977865441	0	0	0	0	N	33.771173215	10	10	thetaT	0.1905660754	0.2	0.2	tauT	100	100	100	f1	0.9437400849	1	1	tauD1	469.5661013203	500	500	alpha1	1.1155065654	1	1	tauD2	15379.4949667886	5000	5000	alpha2	1.6048120804	1	1	kappa	5.5	5.5	5.5	offset	0	0	0		0	0	0		0	0	0		0	0	0		0	0	0		0	0	0		0	0	0		0	0	0		0	0	0		0	0	0		0	0	0		0	0	0		0	0	0		0	0	0		0	0	0		0	0	0
64	TR1_5_W0001_P0009_T0040_R1_P1_K1_Ch2.zen	Z:\AntonioP_elltier1\CelllinesImaging\MitoSysPipelines\170419_MAD2L1gfpcM11-F11\MitoSys2\LSM\DE_W0007_P0001\DE_2_W0007_P0001_T0017\TR1_W0001_P0009\TR1_5_W0001_P0009_T0040_R1_P1_K1_Ch2.zen	FA/ISS	20000	30	1		1	0	0	29.94	100000	2000	Scale	0	2.393	0	0.01	0	0	0.01	0	0	1	1	0	1	103.037	0	0	1	103.037	0	1.0236	1	1	0.9541	1	1	1	1	1	0.9772	1	1	0.020348	0.0013479	0	0	0	0	2.0964	0.13315	0	0	0	0	0	two-component anomalous diffusion with fluorescent protein-like blinking	11	0	0	0.7514785609	0.9976712588	0	0	0	0	N	47.7078509754	10	10	thetaT	0.1682164656	0.2	0.2	tauT	100	100	100	f1	0.9088038133	1	1	tauD1	451.1063047136	500	500	alpha1	1.0367789881	1	1	tauD2	7953.0650460152	5000	5000	alpha2	1.1560445088	1	1	kappa	5.5	5.5	5.5	offset	0	0	0		0	0	0		0	0	0		0	0	0		0	0	0		0	0	0		0	0	0		0	0	0		0	0	0		0	0	0		0	0	0		0	0	0		0	0	0		0	0	0		0	0	0		0	0	0
65	TR1_5_W0001_P0009_T0040_R1_P2_K1_Ch2.zen	Z:\AntonioP_elltier1\CelllinesImaging\MitoSysPipelines\170419_MAD2L1gfpcM11-F11\MitoSys2\LSM\DE_W0007_P0001\DE_2_W0007_P0001_T0017\TR1_W0001_P0009\TR1_5_W0001_P0009_T0040_R1_P2_K1_Ch2.zen	FA/ISS	20000	30	1		1	0	0	29.94	100000	2000	Scale	0	2.393	0	0.01	0	0	0.01	0	0	1	1	0	1	106.801	0	0	1	106.801	0	0.9885	1	1	0.9558	1	1	1	1	1	0.9445	1	1	0.017672	0.00091952	0	0	0	0	1.8906	0.10313	0	0	0	0	0	two-component anomalous diffusion with fluorescent protein-like blinking	11	0	0	0.9829303886	0.997900028	0	0	0	0	N	52.0632396312	10	10	thetaT	0.1972271049	0.2	0.2	tauT	100	100	100	f1	0.9344054085	1	1	tauD1	544.655475927	500	500	alpha1	1.0842625846	1	1	tauD2	9729.6355767013	5000	5000	alpha2	1.3886282027	1	1	kappa	5.5	5.5	5.5	offset	0	0	0		0	0	0		0	0	0		0	0	0		0	0	0		0	0	0		0	0	0		0	0	0		0	0	0		0	0	0		0	0	0		0	0	0		0	0	0		0	0	0		0	0	0		0	0	0
66	TR1_5_W0001_P0009_T0040_R1_P3_K1_Ch2.zen	Z:\AntonioP_elltier1\CelllinesImaging\MitoSysPipelines\170419_MAD2L1gfpcM11-F11\MitoSys2\LSM\DE_W0007_P0001\DE_2_W0007_P0001_T0017\TR1_W0001_P0009\TR1_5_W0001_P0009_T0040_R1_P3_K1_Ch2.zen	FA/ISS	20000	30	1		1	0	0	29.94	100000	2000	Scale	0	2.393	0	0.01	0	0	0.01	0	0	1	1	0	1	93.582	0	0	1	93.582	0	1.0064	1	1	0.9495	1	1	1	1	1	0.9557	1	1	0.019458	0.00082422	0	0	0	0	1.8192	0.083516	0	0	0	0	0	two-component anomalous diffusion with fluorescent protein-like blinking	11	0	0	0.8608715666	0.9962134827	0	0	0	0	N	51.1720022226	10	10	thetaT	0.1659514417	0.2	0.2	tauT	100	100	100	f1	0.9632162306	1	1	tauD1	579.8844228602	500	500	alpha1	1.0848610284	1	1	tauD2	63072.2542565852	5000	5000	alpha2	1.3282761447	1	1	kappa	5.5	5.5	5.5	offset	0	0	0		0	0	0		0	0	0		0	0	0		0	0	0		0	0	0		0	0	0		0	0	0		0	0	0		0	0	0		0	0	0		0	0	0		0	0	0		0	0	0		0	0	0		0	0	0
67	TR1_5_W0001_P0009_T0040_R1_P4_K1_Ch2.zen	Z:\AntonioP_elltier1\CelllinesImaging\MitoSysPipelines\170419_MAD2L1gfpcM11-F11\MitoSys2\LSM\DE_W0007_P0001\DE_2_W0007_P0001_T0017\TR1_W0001_P0009\TR1_5_W0001_P0009_T0040_R1_P4_K1_Ch2.zen	FA/ISS	20000	30	1		1	0	0	29.94	100000	2000	Scale	0	2.393	0	0.01	0	0	0.01	0	0	1	1	0	1	86.474	0	0	1	86.474	0	0.9949	1	1	0.9454	1	1	1	1	1	0.9404	1	1	0.025738	0.00092041	0	0	0	0	2.2236	0.080195	0	0	0	0	0	two-component anomalous diffusion with fluorescent protein-like blinking	11	0	0	0.762304938	0.9973492681	0	0	0	0	N	39.1052224856	10	10	thetaT	0.1852053679	0.2	0.2	tauT	100	100	100	f1	0.9490965533	1	1	tauD1	515.8574728092	500	500	alpha1	1.0317922541	1	1	tauD2	8479.0246184708	5000	5000	alpha2	0.6903501122	1	1	kappa	5.5	5.5	5.5	offset	0	0	0		0	0	0		0	0	0		0	0	0		0	0	0		0	0	0		0	0	0		0	0	0		0	0	0		0	0	0		0	0	0		0	0	0		0	0	0		0	0	0		0	0	0		0	0	0
68	TR1_5_W0001_P0009_T0040_R1_P5_K1_Ch2.zen	Z:\AntonioP_elltier1\CelllinesImaging\MitoSysPipelines\170419_MAD2L1gfpcM11-F11\MitoSys2\LSM\DE_W0007_P0001\DE_2_W0007_P0001_T0017\TR1_W0001_P0009\TR1_5_W0001_P0009_T0040_R1_P5_K1_Ch2.zen	FA/ISS	20000	30	1		1	0	0	29.94	100000	2000	Scale	0	2.393	0	0.01	0	0	0.01	0	0	1	1	0	1	102.295	0	0	1	102.295	0	0.9962	1	1	0.9538	1	1	1	1	1	0.9501	1	1	0.019547	0.0016091	0	0	0	0	2.0006	0.16674	0	0	0	0	0	two-component anomalous diffusion with fluorescent protein-like blinking	11	0	0	1.1936402359	0.9971023631	0	0	0	0	N	51.6383344205	10	10	thetaT	0.1827263813	0.2	0.2	tauT	100	100	100	f1	0.9557030373	1	1	tauD1	428.6156948972	500	500	alpha1	1.1417288736	1	1	tauD2	13554.3098504971	5000	5000	alpha2	1.1650677471	1	1	kappa	5.5	5.5	5.5	offset	0	0	0		0	0	0		0	0	0		0	0	0		0	0	0		0	0	0		0	0	0		0	0	0		0	0	0		0	0	0		0	0	0		0	0	0		0	0	0		0	0	0		0	0	0		0	0	0
69	TR1_5_W0001_P0009_T0040_R1_P6_K1_Ch2.zen	Z:\AntonioP_elltier1\CelllinesImaging\MitoSysPipelines\170419_MAD2L1gfpcM11-F11\MitoSys2\LSM\DE_W0007_P0001\DE_2_W0007_P0001_T0017\TR1_W0001_P0009\TR1_5_W0001_P0009_T0040_R1_P6_K1_Ch2.zen	FA/ISS	20000	30	1		1	0	0	29.94	100000	2000	Scale	0	2.393	0	0.01	0	0	0.01	0	0	1	1	0	1	96.307	0	0	1	96.307	0	0.977	1	1	0.951	1	1	1	1	1	0.9286	1	1	0.023955	0.00075761	0	0	0	0	2.3115	0.079524	0	0	0	0	0	two-component anomalous diffusion with fluorescent protein-like blinking	11	0	0	0.6379799725	0.9975173019	0	0	0	0	N	41.7106797855	10	10	thetaT	0.1851343251	0.2	0.2	tauT	100	100	100	f1	0.9741200265	1	1	tauD1	464.0122255196	500	500	alpha1	1.0522553228	1	1	tauD2	196706.819035724	5000	5000	alpha2	0.9380992295	1	1	kappa	5.5	5.5	5.5	offset	0	0	0		0	0	0		0	0	0		0	0	0		0	0	0		0	0	0		0	0	0		0	0	0		0	0	0		0	0	0		0	0	0		0	0	0		0	0	0		0	0	0		0	0	0		0	0	0
70	TR1_5_W0001_P0008_T0040_R1_P1_K1_Ch2.zen	Z:\AntonioP_elltier1\CelllinesImaging\MitoSysPipelines\170419_MAD2L1gfpcM11-F11\MitoSys2\LSM\DE_W0015_P0001\DE_2_W0015_P0001_T0016\TR1_W0001_P0008\TR1_5_W0001_P0008_T0040_R1_P1_K1_Ch2.zen	FA/ISS	20000	30	1		1	0	0	29.94	100000	2000	Scale	0	2.393	0	0.01	0	0	0.01	0	0	1	1	0	1	84.627	0	0	1	84.627	0	1.0407	1	1	0.9441	1	1	1	1	1	0.9837	1	1	0.023886	0.0012253	0	0	0	0	2.0161	0.085875	0	0	0	0	0	two-component anomalous diffusion with fluorescent protein-like blinking	11	0	0	1.1455847008	0.9951954381	0	0	0	0	N	42.824508143	10	10	thetaT	0.1244471969	0.2	0.2	tauT	100	100	100	f1	0.9627972175	1	1	tauD1	480.8601593087	500	500	alpha1	1.0647103889	1	1	tauD2	35540.4274007078	5000	5000	alpha2	1.1293954558	1	1	kappa	5.5	5.5	5.5	offset	0	0	0		0	0	0		0	0	0		0	0	0		0	0	0		0	0	0		0	0	0		0	0	0		0	0	0		0	0	0		0	0	0		0	0	0		0	0	0		0	0	0		0	0	0		0	0	0
71	TR1_5_W0001_P0008_T0040_R1_P2_K1_Ch2.zen	Z:\AntonioP_elltier1\CelllinesImaging\MitoSysPipelines\170419_MAD2L1gfpcM11-F11\MitoSys2\LSM\DE_W0015_P0001\DE_2_W0015_P0001_T0016\TR1_W0001_P0008\TR1_5_W0001_P0008_T0040_R1_P2_K1_Ch2.zen	FA/ISS	20000	30	1		1	0	0	29.94	100000	2000	Scale	0	2.393	0	0.01	0	0	0.01	0	0	1	1	0	1	60.048	0	0	1	60.048	0	0.9116	1	1	0.9211	1	1	1	1	1	0.8362	1	1	0.027111	0.0025027	0	0	0	0	1.6146	0.14648	0	0	0	0	0	two-component anomalous diffusion with fluorescent protein-like blinking	11	0	0	0.6369783781	0.9983583491	0	0	0	0	N	35.2248208692	10	10	thetaT	0.2253162446	0.2	0.2	tauT	100	100	100	f1	0.9801267774	1	1	tauD1	975.4511708574	500	500	alpha1	1.1227259643	1	1	tauD2	50651.9017796851	5000	5000	alpha2	1.1293521094	1	1	kappa	5.5	5.5	5.5	offset	0	0	0		0	0	0		0	0	0		0	0	0		0	0	0		0	0	0		0	0	0		0	0	0		0	0	0		0	0	0		0	0	0		0	0	0		0	0	0		0	0	0		0	0	0		0	0	0
72	TR1_5_W0001_P0008_T0040_R1_P3_K1_Ch2.zen	Z:\AntonioP_elltier1\CelllinesImaging\MitoSysPipelines\170419_MAD2L1gfpcM11-F11\MitoSys2\LSM\DE_W0015_P0001\DE_2_W0015_P0001_T0016\TR1_W0001_P0008\TR1_5_W0001_P0008_T0040_R1_P3_K1_Ch2.zen	FA/ISS	20000	30	1		1	0	0	29.94	100000	2000	Scale	0	2.393	0	0.01	0	0	0.01	0	0	1	1	0	1	81.352	0	0	1	81.352	0	1.0024	1	1	0.9422	1	1	1	1	1	0.9445	1	1	0.024809	0.0014188	0	0	0	0	2.0218	0.10378	0	0	0	0	0	two-component anomalous diffusion with fluorescent protein-like blinking	11	0	0	0.8231462288	0.9972458242	0	0	0	0	N	39.5543369052	10	10	thetaT	0.2770089023	0.2	0.2	tauT	100	100	100	f1	0.9452590241	1	1	tauD1	543.4419661664	500	500	alpha1	1.1949695566	1	1	tauD2	33051.4825989686	5000	5000	alpha2	1.7464526855	1	1	kappa	5.5	5.5	5.5	offset	0	0	0		0	0	0		0	0	0		0	0	0		0	0	0		0	0	0		0	0	0		0	0	0		0	0	0		0	0	0		0	0	0		0	0	0		0	0	0		0	0	0		0	0	0		0	0	0
73	TR1_5_W0001_P0008_T0040_R1_P4_K1_Ch2.zen	Z:\AntonioP_elltier1\CelllinesImaging\MitoSysPipelines\170419_MAD2L1gfpcM11-F11\MitoSys2\LSM\DE_W0015_P0001\DE_2_W0015_P0001_T0016\TR1_W0001_P0008\TR1_5_W0001_P0008_T0040_R1_P4_K1_Ch2.zen	FA/ISS	20000	30	1		1	0	0	29.94	100000	2000	Scale	0	2.393	0	0.01	0	0	0.01	0	0	1	1	0	1	75.316	0	0	1	75.316	0	0.9997	1	1	0.9373	1	1	1	1	1	0.9369	1	1	0.027726	0.0033438	0	0	0	0	2.0884	0.28507	0	0	0	0	0	two-component anomalous diffusion with fluorescent protein-like blinking	11	0	0	0.9353412146	0.9977850551	0	0	0	0	N	36.168943796	10	10	thetaT	0.1942586087	0.2	0.2	tauT	100	100	100	f1	0.9711503046	1	1	tauD1	474.5745348398	500	500	alpha1	1.0451900596	1	1	tauD2	56037.2210902863	5000	5000	alpha2	1.9998181558	1	1	kappa	5.5	5.5	5.5	offset	0	0	0		0	0	0		0	0	0		0	0	0		0	0	0		0	0	0		0	0	0		0	0	0		0	0	0		0	0	0		0	0	0		0	0	0		0	0	0		0	0	0		0	0	0		0	0	0
74	TR1_5_W0001_P0008_T0040_R1_P5_K1_Ch2.zen	Z:\AntonioP_elltier1\CelllinesImaging\MitoSysPipelines\170419_MAD2L1gfpcM11-F11\MitoSys2\LSM\DE_W0015_P0001\DE_2_W0015_P0001_T0016\TR1_W0001_P0008\TR1_5_W0001_P0008_T0040_R1_P5_K1_Ch2.zen	FA/ISS	20000	30	1	x	1	0	0	29.94	100000	2000	Scale	0	2.393	0	0.01	0	0	0.01	0	0	1	1	0	1	2.073	0	0	1	2.073	0	1.0178	1	1	0.0245	1	1	1	1	1	0.0217	1	1	0.025038	0.031031	0	0	0	0	0.051564	0.064266	0	0	0	0	0	two-component anomalous diffusion with fluorescent protein-like blinking	11	0	0	1.0148460775	0.3400346726	0	0	0	0	N	21.0971971535	10	10	thetaT	0.0010002771	0.2	0.2	tauT	100	100	100	f1	0.9765223229	1	1	tauD1	136.3854512796	500	500	alpha1	1.2	1	1	tauD2	21485.9893587311	5000	5000	alpha2	1.9999999786	1	1	kappa	5.5	5.5	5.5	offset	0	0	0		0	0	0		0	0	0		0	0	0		0	0	0		0	0	0		0	0	0		0	0	0		0	0	0		0	0	0		0	0	0		0	0	0		0	0	0		0	0	0		0	0	0		0	0	0
75	TR1_5_W0001_P0008_T0040_R1_P6_K1_Ch2.zen	Z:\AntonioP_elltier1\CelllinesImaging\MitoSysPipelines\170419_MAD2L1gfpcM11-F11\MitoSys2\LSM\DE_W0015_P0001\DE_2_W0015_P0001_T0016\TR1_W0001_P0008\TR1_5_W0001_P0008_T0040_R1_P6_K1_Ch2.zen	FA/ISS	20000	30	1		1	0	0	29.94	100000	2000	Scale	0	2.393	0	0.01	0	0	0.01	0	0	1	1	0	1	74.349	0	0	1	74.349	0	1.0219	1	1	0.9366	1	1	1	1	1	0.9578	1	1	0.027322	0.0036595	0	0	0	0	2.0315	0.2769	0	0	0	0	0	two-component anomalous diffusion with fluorescent protein-like blinking	11	0	0	0.787076862	0.9979526323	0	0	0	0	N	37.5291648741	10	10	thetaT	0.1301540622	0.2	0.2	tauT	100	100	100	f1	0.9060146058	1	1	tauD1	419.1773650224	500	500	alpha1	1.1999902496	1	1	tauD2	10921.0108297393	5000	5000	alpha2	1.9588589355	1	1	kappa	5.5	5.5	5.5	offset	0	0	0		0	0	0		0	0	0		0	0	0		0	0	0		0	0	0		0	0	0		0	0	0		0	0	0		0	0	0		0	0	0		0	0	0		0	0	0		0	0	0		0	0	0		0	0	0
76	TR1_5_W0001_P0002_T0040_R1_P1_K1_Ch2.zen	Z:\AntonioP_elltier1\CelllinesImaging\MitoSysPipelines\170419_MAD2L1gfpcM11-F11\MitoSys2\LSM\DE_W0018_P0001\DE_2_W0018_P0001_T0004\TR1_W0001_P0002\TR1_5_W0001_P0002_T0040_R1_P1_K1_Ch2.zen	FA/ISS	20000	30	1		1	0	0	29.94	100000	2000	Scale	0	2.393	0	0.01	0	0	0.01	0	0	1	1	0	1	68.639	0	0	1	68.639	0	1.1235	1	1	0.931	1	1	1	1	1	1.0501	1	1	0.023476	0.0024136	0	0	0	0	1.6027	0.18827	0	0	0	0	0	two-component anomalous diffusion with fluorescent protein-like blinking	11	0	0	0.791927684	0.9964781041	0	0	0	0	N	43.441695949	10	10	thetaT	0.1517405566	0.2	0.2	tauT	100	100	100	f1	0.9296621949	1	1	tauD1	644.1354798606	500	500	alpha1	1.1293779059	1	1	tauD2	6407.4925134714	5000	5000	alpha2	1.0205551303	1	1	kappa	5.5	5.5	5.5	offset	0	0	0		0	0	0		0	0	0		0	0	0		0	0	0		0	0	0		0	0	0		0	0	0		0	0	0		0	0	0		0	0	0		0	0	0		0	0	0		0	0	0		0	0	0		0	0	0
77	TR1_5_W0001_P0002_T0040_R1_P2_K1_Ch2.zen	Z:\AntonioP_elltier1\CelllinesImaging\MitoSysPipelines\170419_MAD2L1gfpcM11-F11\MitoSys2\LSM\DE_W0018_P0001\DE_2_W0018_P0001_T0004\TR1_W0001_P0002\TR1_5_W0001_P0002_T0040_R1_P2_K1_Ch2.zen	FA/ISS	20000	30	1		1	0	0	29.94	100000	2000	Scale	0	2.393	0	0.01	0	0	0.01	0	0	1	1	0	1	76.134	0	0	1	76.134	0	1.0056	1	1	0.9381	1	1	1	1	1	0.9435	1	1	0.022672	0.001202	0	0	0	0	1.7258	0.095284	0	0	0	0	0	two-component anomalous diffusion with fluorescent protein-like blinking	11	0	0	0.8691248828	0.9962613751	0	0	0	0	N	43.669236493	10	10	thetaT	0.1661323342	0.2	0.2	tauT	100	100	100	f1	0.9535999497	1	1	tauD1	580.0510637413	500	500	alpha1	1.1166708367	1	1	tauD2	17990.2391154008	5000	5000	alpha2	1.0803746569	1	1	kappa	5.5	5.5	5.5	offset	0	0	0		0	0	0		0	0	0		0	0	0		0	0	0		0	0	0		0	0	0		0	0	0		0	0	0		0	0	0		0	0	0		0	0	0		0	0	0		0	0	0		0	0	0		0	0	0
78	TR1_5_W0001_P0002_T0040_R1_P3_K1_Ch2.zen	Z:\AntonioP_elltier1\CelllinesImaging\MitoSysPipelines\170419_MAD2L1gfpcM11-F11\MitoSys2\LSM\DE_W0018_P0001\DE_2_W0018_P0001_T0004\TR1_W0001_P0002\TR1_5_W0001_P0002_T0040_R1_P3_K1_Ch2.zen	FA/ISS	20000	30	1		1	0	0	29.94	100000	2000	Scale	0	2.393	0	0.01	0	0	0.01	0	0	1	1	0	1	77.726	0	0	1	77.726	0	1.02	1	1	0.9394	1	1	1	1	1	0.9588	1	1	0.027036	0.0024404	0	0	0	0	2.102	0.17098	0	0	0	0	0	two-component anomalous diffusion with fluorescent protein-like blinking	11	0	0	0.6715508216	0.9979391555	0	0	0	0	N	37.1683787091	10	10	thetaT	0.2206234169	0.2	0.2	tauT	100	100	100	f1	0.9503891496	1	1	tauD1	541.4503254316	500	500	alpha1	1.1196594921	1	1	tauD2	19383.7540989693	5000	5000	alpha2	1.2659080352	1	1	kappa	5.5	5.5	5.5	offset	0	0	0		0	0	0		0	0	0		0	0	0		0	0	0		0	0	0		0	0	0		0	0	0		0	0	0		0	0	0		0	0	0		0	0	0		0	0	0		0	0	0		0	0	0		0	0	0
79	TR1_5_W0001_P0002_T0040_R1_P4_K1_Ch2.zen	Z:\AntonioP_elltier1\CelllinesImaging\MitoSysPipelines\170419_MAD2L1gfpcM11-F11\MitoSys2\LSM\DE_W0018_P0001\DE_2_W0018_P0001_T0004\TR1_W0001_P0002\TR1_5_W0001_P0002_T0040_R1_P4_K1_Ch2.zen	FA/ISS	20000	30	1		1	0	0	29.94	100000	2000	Scale	0	2.393	0	0.01	0	0	0.01	0	0	1	1	0	1	69.903	0	0	1	69.903	0	0.9843	1	1	0.9327	1	1	1	1	1	0.9176	1	1	0.035613	0.0029043	0	0	0	0	2.49	0.19486	0	0	0	0	0	two-component anomalous diffusion with fluorescent protein-like blinking	11	0	0	0.8945550256	0.9985102297	0	0	0	0	N	27.3787446545	10	10	thetaT	0.1997054492	0.2	0.2	tauT	100	100	100	f1	0.9108251548	1	1	tauD1	418.3182190052	500	500	alpha1	1.0178736542	1	1	tauD2	14541.2729746971	5000	5000	alpha2	1.3040951079	1	1	kappa	5.5	5.5	5.5	offset	0	0	0		0	0	0		0	0	0		0	0	0		0	0	0		0	0	0		0	0	0		0	0	0		0	0	0		0	0	0		0	0	0		0	0	0		0	0	0		0	0	0		0	0	0		0	0	0
80	TR1_5_W0001_P0002_T0040_R1_P5_K1_Ch2.zen	Z:\AntonioP_elltier1\CelllinesImaging\MitoSysPipelines\170419_MAD2L1gfpcM11-F11\MitoSys2\LSM\DE_W0018_P0001\DE_2_W0018_P0001_T0004\TR1_W0001_P0002\TR1_5_W0001_P0002_T0040_R1_P5_K1_Ch2.zen	FA/ISS	20000	30	1		1	0	0	29.94	100000	2000	Scale	0	2.393	0	0.01	0	0	0.01	0	0	1	1	0	1	45.798	0	0	1	45.798	0	1.1262	1	1	0.8976	1	1	1	1	1	1.017	1	1	0.031899	0.0021938	0	0	0	0	1.4595	0.16297	0	0	0	0	0	two-component anomalous diffusion with fluorescent protein-like blinking	11	0	0	0.7507877476	0.996460279	0	0	0	0	N	31.711583447	10	10	thetaT	0.1604350852	0.2	0.2	tauT	100	100	100	f1	0.8121275131	1	1	tauD1	591.7916790497	500	500	alpha1	1.1940763462	1	1	tauD2	7484.6122994311	5000	5000	alpha2	1.0369583797	1	1	kappa	5.5	5.5	5.5	offset	0	0	0		0	0	0		0	0	0		0	0	0		0	0	0		0	0	0		0	0	0		0	0	0		0	0	0		0	0	0		0	0	0		0	0	0		0	0	0		0	0	0		0	0	0		0	0	0
81	TR1_5_W0001_P0002_T0040_R1_P6_K1_Ch2.zen	Z:\AntonioP_elltier1\CelllinesImaging\MitoSysPipelines\170419_MAD2L1gfpcM11-F11\MitoSys2\LSM\DE_W0018_P0001\DE_2_W0018_P0001_T0004\TR1_W0001_P0002\TR1_5_W0001_P0002_T0040_R1_P6_K1_Ch2.zen	FA/ISS	20000	30	1	x	1	0	0	29.94	100000	2000	Scale	0	2.393	0	0.01	0	0	0.01	0	0	1	1	0	1	13.585	0	0	1	13.585	0	1.6127	1	1	0.6521	1	1	1	1	1	1.1303	1	1	0.03112	0.022758	0	0	0	0	0.47312	0.41462	0	0	0	0	0	two-component anomalous diffusion with fluorescent protein-like blinking	11	0	0	0.9391619047	0.9576606277	0	0	0	0	N	34.0447483926	10	10	thetaT	0.0047103234	0.2	0.2	tauT	100	100	100	f1	0.8660677447	1	1	tauD1	416.4282284857	500	500	alpha1	1.2	1	1	tauD2	17514.9947805909	5000	5000	alpha2	0.7396681242	1	1	kappa	5.5	5.5	5.5	offset	0	0	0		0	0	0		0	0	0		0	0	0		0	0	0		0	0	0		0	0	0		0	0	0		0	0	0		0	0	0		0	0	0		0	0	0		0	0	0		0	0	0		0	0	0		0	0	0
82	TR1_5_W0001_P0004_T0040_R1_P1_K1_Ch2.zen	Z:\AntonioP_elltier1\CelllinesImaging\MitoSysPipelines\170419_MAD2L1gfpcM11-F11\MitoSys2\LSM\DE_W0023_P0001\DE_2_W0023_P0001_T0008\TR1_W0001_P0004\TR1_5_W0001_P0004_T0040_R1_P1_K1_Ch2.zen	FA/ISS	20000	30	1		1	0	0	29.94	100000	2000	Scale	0	2.393	0	0.01	0	0	0.01	0	0	1	1	0	1	81.595	0	0	1	81.595	0	1.0211	1	1	0.9421	1	1	1	1	1	0.9626	1	1	0.023344	0.00082554	0	0	0	0	1.9014	0.068623	0	0	0	0	0	two-component anomalous diffusion with fluorescent protein-like blinking	11	0	0	0.8075193468	0.9975163201	0	0	0	0	N	39.2489233164	10	10	thetaT	0.1610183498	0.2	0.2	tauT	100	100	100	f1	0.926008754	1	1	tauD1	499.3569388555	500	500	alpha1	1.1111526225	1	1	tauD2	7443.9940991045	5000	5000	alpha2	0.9938451085	1	1	kappa	5.5	5.5	5.5	offset	0	0	0		0	0	0		0	0	0		0	0	0		0	0	0		0	0	0		0	0	0		0	0	0		0	0	0		0	0	0		0	0	0		0	0	0		0	0	0		0	0	0		0	0	0		0	0	0
83	TR1_5_W0001_P0004_T0040_R1_P2_K1_Ch2.zen	Z:\AntonioP_elltier1\CelllinesImaging\MitoSysPipelines\170419_MAD2L1gfpcM11-F11\MitoSys2\LSM\DE_W0023_P0001\DE_2_W0023_P0001_T0008\TR1_W0001_P0004\TR1_5_W0001_P0004_T0040_R1_P2_K1_Ch2.zen	FA/ISS	20000	30	1		1	0	0	29.94	100000	2000	Scale	0	2.393	0	0.01	0	0	0.01	0	0	1	1	0	1	77.501	0	0	1	77.501	0	1.024	1	1	0.9392	1	1	1	1	1	0.9624	1	1	0.027173	0.00082169	0	0	0	0	2.105	0.083352	0	0	0	0	0	two-component anomalous diffusion with fluorescent protein-like blinking	11	0	0	0.9582922158	0.9963054353	0	0	0	0	N	35.7415938241	10	10	thetaT	0.1631527459	0.2	0.2	tauT	100	100	100	f1	0.9758464564	1	1	tauD1	445.1338173427	500	500	alpha1	1.0296043623	1	1	tauD2	41871.5571214398	5000	5000	alpha2	1.174454465	1	1	kappa	5.5	5.5	5.5	offset	0	0	0		0	0	0		0	0	0		0	0	0		0	0	0		0	0	0		0	0	0		0	0	0		0	0	0		0	0	0		0	0	0		0	0	0		0	0	0		0	0	0		0	0	0		0	0	0
84	TR1_5_W0001_P0004_T0040_R1_P3_K1_Ch2.zen	Z:\AntonioP_elltier1\CelllinesImaging\MitoSysPipelines\170419_MAD2L1gfpcM11-F11\MitoSys2\LSM\DE_W0023_P0001\DE_2_W0023_P0001_T0008\TR1_W0001_P0004\TR1_5_W0001_P0004_T0040_R1_P3_K1_Ch2.zen	FA/ISS	20000	30	1		1	0	0	29.94	100000	2000	Scale	0	2.393	0	0.01	0	0	0.01	0	0	1	1	0	1	59.4	0	0	1	59.4	0	1.0258	1	1	0.9209	1	1	1	1	1	0.9456	1	1	0.035355	0.0028515	0	0	0	0	2.0962	0.17559	0	0	0	0	0	two-component anomalous diffusion with fluorescent protein-like blinking	11	0	0	1.0222842511	0.9977770924	0	0	0	0	N	27.4411434916	10	10	thetaT	0.2213663345	0.2	0.2	tauT	100	100	100	f1	0.9436341566	1	1	tauD1	615.1131736727	500	500	alpha1	1.0571361901	1	1	tauD2	20483.8208140728	5000	5000	alpha2	1.307532881	1	1	kappa	5.5	5.5	5.5	offset	0	0	0		0	0	0		0	0	0		0	0	0		0	0	0		0	0	0		0	0	0		0	0	0		0	0	0		0	0	0		0	0	0		0	0	0		0	0	0		0	0	0		0	0	0		0	0	0
85	TR1_5_W0001_P0004_T0040_R1_P4_K1_Ch2.zen	Z:\AntonioP_elltier1\CelllinesImaging\MitoSysPipelines\170419_MAD2L1gfpcM11-F11\MitoSys2\LSM\DE_W0023_P0001\DE_2_W0023_P0001_T0008\TR1_W0001_P0004\TR1_5_W0001_P0004_T0040_R1_P4_K1_Ch2.zen	FA/ISS	20000	30	1	x	1	0	0	29.94	100000	2000	Scale	0	2.393	0	0.01	0	0	0.01	0	0	1	1	0	1	37.872	0	0	1	37.872	0	1.0086	1	1	0.8787	1	1	1	1	1	0.886	1	1	0.061074	0.0091725	0	0	0	0	2.3325	0.25232	0	0	0	0	0	two-component anomalous diffusion with fluorescent protein-like blinking	11	0	0	0.3718050228	0.998603786	0	0	0	0	N	16.6040356779	10	10	thetaT	0.1936077354	0.2	0.2	tauT	100	100	100	f1	0.9385246991	1	1	tauD1	478.6807917239	500	500	alpha1	1.0720001217	1	1	tauD2	108733.87858323	5000	5000	alpha2	1.9967605497	1	1	kappa	5.5	5.5	5.5	offset	0	0	0		0	0	0		0	0	0		0	0	0		0	0	0		0	0	0		0	0	0		0	0	0		0	0	0		0	0	0		0	0	0		0	0	0		0	0	0		0	0	0		0	0	0		0	0	0
86	TR1_5_W0001_P0004_T0040_R1_P5_K1_Ch2.zen	Z:\AntonioP_elltier1\CelllinesImaging\MitoSysPipelines\170419_MAD2L1gfpcM11-F11\MitoSys2\LSM\DE_W0023_P0001\DE_2_W0023_P0001_T0008\TR1_W0001_P0004\TR1_5_W0001_P0004_T0040_R1_P5_K1_Ch2.zen	FA/ISS	20000	30	1		1	0	0	29.94	100000	2000	Scale	0	2.393	0	0.01	0	0	0.01	0	0	1	1	0	1	60	0	0	1	60	0	1.0816	1	1	0.9217	1	1	1	1	1	0.9998	1	1	0.034706	0.003097	0	0	0	0	2.0851	0.22381	0	0	0	0	0	two-component anomalous diffusion with fluorescent protein-like blinking	11	0	0	0.9385021296	0.9977812803	0	0	0	0	N	28.4900451836	10	10	thetaT	0.1694457994	0.2	0.2	tauT	100	100	100	f1	0.9499558379	1	1	tauD1	507.0528130114	500	500	alpha1	0.9544190389	1	1	tauD2	3782.4055414668	5000	5000	alpha2	0.6235942865	1	1	kappa	5.5	5.5	5.5	offset	0	0	0		0	0	0		0	0	0		0	0	0		0	0	0		0	0	0		0	0	0		0	0	0		0	0	0		0	0	0		0	0	0		0	0	0		0	0	0		0	0	0		0	0	0		0	0	0
87	TR1_5_W0001_P0004_T0040_R1_P6_K1_Ch2.zen	Z:\AntonioP_elltier1\CelllinesImaging\MitoSysPipelines\170419_MAD2L1gfpcM11-F11\MitoSys2\LSM\DE_W0023_P0001\DE_2_W0023_P0001_T0008\TR1_W0001_P0004\TR1_5_W0001_P0004_T0040_R1_P6_K1_Ch2.zen	FA/ISS	20000	30	1		1	0	0	29.94	100000	2000	Scale	0	2.393	0	0.01	0	0	0.01	0	0	1	1	0	1	64.643	0	0	1	64.643	0	0.9917	1	1	0.9275	1	1	1	1	1	0.9196	1	1	0.025903	0.0019859	0	0	0	0	1.6783	0.12196	0	0	0	0	0	two-component anomalous diffusion with fluorescent protein-like blinking	11	0	0	0.8634610051	0.9963146705	0	0	0	0	N	36.1538169356	10	10	thetaT	0.2659143902	0.2	0.2	tauT	100	100	100	f1	0.9504296381	1	1	tauD1	540.1851895857	500	500	alpha1	1.0880408473	1	1	tauD2	18855.0687102814	5000	5000	alpha2	1.5343563948	1	1	kappa	5.5	5.5	5.5	offset	0	0	0		0	0	0		0	0	0		0	0	0		0	0	0		0	0	0		0	0	0		0	0	0		0	0	0		0	0	0		0	0	0		0	0	0		0	0	0		0	0	0		0	0	0		0	0	0
88	TR1_5_W0001_P0005_T0040_R1_P1_K1_Ch2.zen	Z:\AntonioP_elltier1\CelllinesImaging\MitoSysPipelines\170419_MAD2L1gfpcM11-F11\MitoSys2\LSM\DE_W0024_P0001\DE_2_W0024_P0001_T0009\TR1_W0001_P0005\TR1_5_W0001_P0005_T0040_R1_P1_K1_Ch2.zen	FA/ISS	20000	30	1		1	0	0	29.94	100000	2000	Scale	0	2.393	0	0.01	0	0	0.01	0	0	1	1	0	1	84.91	0	0	1	84.91	0	1.0117	1	1	0.9445	1	1	1	1	1	0.9559	1	1	0.028657	0.0012842	0	0	0	0	2.4355	0.086779	0	0	0	0	0	two-component anomalous diffusion with fluorescent protein-like blinking	11	0	0	0.8090922253	0.9984272537	0	0	0	0	N	34.9801045285	10	10	thetaT	0.1982327842	0.2	0.2	tauT	100	100	100	f1	0.9354895636	1	1	tauD1	523.7301620019	500	500	alpha1	1.0869962895	1	1	tauD2	6236.1285234669	5000	5000	alpha2	0.9807118112	1	1	kappa	5.5	5.5	5.5	offset	0	0	0		0	0	0		0	0	0		0	0	0		0	0	0		0	0	0		0	0	0		0	0	0		0	0	0		0	0	0		0	0	0		0	0	0		0	0	0		0	0	0		0	0	0		0	0	0
89	TR1_5_W0001_P0005_T0040_R1_P2_K1_Ch2.zen	Z:\AntonioP_elltier1\CelllinesImaging\MitoSysPipelines\170419_MAD2L1gfpcM11-F11\MitoSys2\LSM\DE_W0024_P0001\DE_2_W0024_P0001_T0009\TR1_W0001_P0005\TR1_5_W0001_P0005_T0040_R1_P2_K1_Ch2.zen	FA/ISS	20000	30	1		1	0	0	29.94	100000	2000	Scale	0	2.393	0	0.01	0	0	0.01	0	0	1	1	0	1	76.604	0	0	1	76.604	0	1.0189	1	1	0.9386	1	1	1	1	1	0.9569	1	1	0.022099	0.0011941	0	0	0	0	1.6947	0.10093	0	0	0	0	0	two-component anomalous diffusion with fluorescent protein-like blinking	11	0	0	0.7442112233	0.9974350871	0	0	0	0	N	44.8925942071	10	10	thetaT	0.1490302887	0.2	0.2	tauT	100	100	100	f1	0.9579135456	1	1	tauD1	573.1287050891	500	500	alpha1	1.0816784343	1	1	tauD2	9754.5008802763	5000	5000	alpha2	0.8637784122	1	1	kappa	5.5	5.5	5.5	offset	0	0	0		0	0	0		0	0	0		0	0	0		0	0	0		0	0	0		0	0	0		0	0	0		0	0	0		0	0	0		0	0	0		0	0	0		0	0	0		0	0	0		0	0	0		0	0	0
90	TR1_5_W0001_P0005_T0040_R1_P3_K1_Ch2.zen	Z:\AntonioP_elltier1\CelllinesImaging\MitoSysPipelines\170419_MAD2L1gfpcM11-F11\MitoSys2\LSM\DE_W0024_P0001\DE_2_W0024_P0001_T0009\TR1_W0001_P0005\TR1_5_W0001_P0005_T0040_R1_P3_K1_Ch2.zen	FA/ISS	20000	30	1		1	0	0	29.94	100000	2000	Scale	0	2.393	0	0.01	0	0	0.01	0	0	1	1	0	1	80.148	0	0	1	80.148	0	1.0223	1	1	0.9412	1	1	1	1	1	0.9628	1	1	0.024624	0.0029485	0	0	0	0	1.9718	0.22497	0	0	0	0	0	two-component anomalous diffusion with fluorescent protein-like blinking	11	0	0	0.8086680685	0.9984255518	0	0	0	0	N	40.8496573405	10	10	thetaT	0.2198663609	0.2	0.2	tauT	100	100	100	f1	0.9447645955	1	1	tauD1	557.473483398	500	500	alpha1	1.167159338	1	1	tauD2	23286.3501328682	5000	5000	alpha2	1.5706954394	1	1	kappa	5.5	5.5	5.5	offset	0	0	0		0	0	0		0	0	0		0	0	0		0	0	0		0	0	0		0	0	0		0	0	0		0	0	0		0	0	0		0	0	0		0	0	0		0	0	0		0	0	0		0	0	0		0	0	0
91	TR1_5_W0001_P0005_T0040_R1_P4_K1_Ch2.zen	Z:\AntonioP_elltier1\CelllinesImaging\MitoSysPipelines\170419_MAD2L1gfpcM11-F11\MitoSys2\LSM\DE_W0024_P0001\DE_2_W0024_P0001_T0009\TR1_W0001_P0005\TR1_5_W0001_P0005_T0040_R1_P4_K1_Ch2.zen	FA/ISS	20000	30	1		1	0	0	29.94	100000	2000	Scale	0	2.393	0	0.01	0	0	0.01	0	0	1	1	0	1	74.955	0	0	1	74.955	0	1.068	1	1	0.9367	1	1	1	1	1	1.0025	1	1	0.031392	0.0015737	0	0	0	0	2.3355	0.13978	0	0	0	0	0	two-component anomalous diffusion with fluorescent protein-like blinking	11	0	0	0.8261695138	0.998668346	0	0	0	0	N	30.6844966706	10	10	thetaT	0.1974364761	0.2	0.2	tauT	100	100	100	f1	0.857862385	1	1	tauD1	468.4869662048	500	500	alpha1	1.1460280308	1	1	tauD2	4648.817146108	5000	5000	alpha2	1.0938928607	1	1	kappa	5.5	5.5	5.5	offset	0	0	0		0	0	0		0	0	0		0	0	0		0	0	0		0	0	0		0	0	0		0	0	0		0	0	0		0	0	0		0	0	0		0	0	0		0	0	0		0	0	0		0	0	0		0	0	0
92	TR1_5_W0001_P0005_T0040_R1_P5_K1_Ch2.zen	Z:\AntonioP_elltier1\CelllinesImaging\MitoSysPipelines\170419_MAD2L1gfpcM11-F11\MitoSys2\LSM\DE_W0024_P0001\DE_2_W0024_P0001_T0009\TR1_W0001_P0005\TR1_5_W0001_P0005_T0040_R1_P5_K1_Ch2.zen	FA/ISS	20000	30	1	x	1	0	0	29.94	100000	2000	Scale	0	2.393	0	0.01	0	0	0.01	0	0	1	1	0	1	24.15	0	0	1	24.15	0	1.6118	1	1	0.8046	1	1	1	1	1	1.3506	1	1	0.051905	0.013745	0	0	0	0	1.2658	0.52556	0	0	0	0	0	two-component anomalous diffusion with fluorescent protein-like blinking	11	0	0	0.8360687827	0.991743444	0	0	0	0	N	20.6067353305	10	10	thetaT	0.1479629853	0.2	0.2	tauT	100	100	100	f1	0.9705196883	1	1	tauD1	279.4339339134	500	500	alpha1	0.939898768	1	1	tauD2	168420.125111381	5000	5000	alpha2	1.999976279	1	1	kappa	5.5	5.5	5.5	offset	0	0	0		0	0	0		0	0	0		0	0	0		0	0	0		0	0	0		0	0	0		0	0	0		0	0	0		0	0	0		0	0	0		0	0	0		0	0	0		0	0	0		0	0	0		0	0	0
93	TR1_5_W0001_P0005_T0040_R1_P6_K1_Ch2.zen	Z:\AntonioP_elltier1\CelllinesImaging\MitoSysPipelines\170419_MAD2L1gfpcM11-F11\MitoSys2\LSM\DE_W0024_P0001\DE_2_W0024_P0001_T0009\TR1_W0001_P0005\TR1_5_W0001_P0005_T0040_R1_P6_K1_Ch2.zen	FA/ISS	20000	30	1		1	0	0	29.94	100000	2000	Scale	0	2.393	0	0.01	0	0	0.01	0	0	1	1	0	1	65.002	0	0	1	65.002	0	1.0596	1	1	0.9277	1	1	1	1	1	0.985	1	1	0.02348	0.0047699	0	0	0	0	1.525	0.30675	0	0	0	0	0	two-component anomalous diffusion with fluorescent protein-like blinking	11	0	0	0.9861187663	0.996266593	0	0	0	0	N	42.528671691	10	10	thetaT	0.1673687846	0.2	0.2	tauT	100	100	100	f1	0.9822885352	1	1	tauD1	672.2752467336	500	500	alpha1	1.0707709367	1	1	tauD2	16911.6003679944	5000	5000	alpha2	0.9675791963	1	1	kappa	5.5	5.5	5.5	offset	0	0	0		0	0	0		0	0	0		0	0	0		0	0	0		0	0	0		0	0	0		0	0	0		0	0	0		0	0	0		0	0	0		0	0	0		0	0	0		0	0	0		0	0	0		0	0	0
94	TR1_5_W0001_P0006_T0040_R1_P1_K1_Ch2.zen	Z:\AntonioP_elltier1\CelllinesImaging\MitoSysPipelines\170419_MAD2L1gfpcM11-F11\MitoSys2\LSM\DE_W0026_P0001\DE_2_W0026_P0001_T0009\TR1_W0001_P0006\TR1_5_W0001_P0006_T0040_R1_P1_K1_Ch2.zen	FA/ISS	20000	30	1		1	0	0	29.94	100000	2000	Scale	0	2.393	0	0.01	0	0	0.01	0	0	1	1	0	1	83.476	0	0	1	83.476	0	1.0265	1	1	0.9434	1	1	1	1	1	0.9692	1	1	0.024802	0.0017212	0	0	0	0	2.0698	0.16484	0	0	0	0	0	two-component anomalous diffusion with fluorescent protein-like blinking	11	0	0	0.7174800218	0.9973021734	0	0	0	0	N	40.5754503824	10	10	thetaT	0.2062903845	0.2	0.2	tauT	100	100	100	f1	0.9517805178	1	1	tauD1	469.8944786857	500	500	alpha1	1.1069088782	1	1	tauD2	16996.6623016798	5000	5000	alpha2	1.9258961283	1	1	kappa	5.5	5.5	5.5	offset	0	0	0		0	0	0		0	0	0		0	0	0		0	0	0		0	0	0		0	0	0		0	0	0		0	0	0		0	0	0		0	0	0		0	0	0		0	0	0		0	0	0		0	0	0		0	0	0
95	TR1_5_W0001_P0006_T0040_R1_P2_K1_Ch2.zen	Z:\AntonioP_elltier1\CelllinesImaging\MitoSysPipelines\170419_MAD2L1gfpcM11-F11\MitoSys2\LSM\DE_W0026_P0001\DE_2_W0026_P0001_T0009\TR1_W0001_P0006\TR1_5_W0001_P0006_T0040_R1_P2_K1_Ch2.zen	FA/ISS	20000	30	1		1	0	0	29.94	100000	2000	Scale	0	2.393	0	0.01	0	0	0.01	0	0	1	1	0	1	81.075	0	0	1	81.075	0	1.0211	1	1	0.942	1	1	1	1	1	0.9625	1	1	0.023917	0.0019959	0	0	0	0	1.9424	0.1362	0	0	0	0	0	two-component anomalous diffusion with fluorescent protein-like blinking	11	0	0	0.9934802362	0.9975821797	0	0	0	0	N	42.5015965891	10	10	thetaT	0.1817667923	0.2	0.2	tauT	100	100	100	f1	0.9380113046	1	1	tauD1	485.0974060571	500	500	alpha1	1.1523950765	1	1	tauD2	13405.2293610593	5000	5000	alpha2	1.1646357777	1	1	kappa	5.5	5.5	5.5	offset	0	0	0		0	0	0		0	0	0		0	0	0		0	0	0		0	0	0		0	0	0		0	0	0		0	0	0		0	0	0		0	0	0		0	0	0		0	0	0		0	0	0		0	0	0		0	0	0
96	TR1_5_W0001_P0006_T0040_R1_P3_K1_Ch2.zen	Z:\AntonioP_elltier1\CelllinesImaging\MitoSysPipelines\170419_MAD2L1gfpcM11-F11\MitoSys2\LSM\DE_W0026_P0001\DE_2_W0026_P0001_T0009\TR1_W0001_P0006\TR1_5_W0001_P0006_T0040_R1_P3_K1_Ch2.zen	FA/ISS	20000	30	1		1	0	0	29.94	100000	2000	Scale	0	2.393	0	0.01	0	0	0.01	0	0	1	1	0	1	82.064	0	0	1	82.064	0	1.0163	1	1	0.9425	1	1	1	1	1	0.9583	1	1	0.025725	0.0015569	0	0	0	0	2.1094	0.14199	0	0	0	0	0	two-component anomalous diffusion with fluorescent protein-like blinking	11	0	0	0.7107133196	0.9965525977	0	0	0	0	N	39.7263661821	10	10	thetaT	0.1660332734	0.2	0.2	tauT	100	100	100	f1	0.9621860554	1	1	tauD1	438.9012585823	500	500	alpha1	0.9865449378	1	1	tauD2	14020.8202635415	5000	5000	alpha2	0.761068178	1	1	kappa	5.5	5.5	5.5	offset	0	0	0		0	0	0		0	0	0		0	0	0		0	0	0		0	0	0		0	0	0		0	0	0		0	0	0		0	0	0		0	0	0		0	0	0		0	0	0		0	0	0		0	0	0		0	0	0
97	TR1_5_W0001_P0006_T0040_R1_P4_K1_Ch2.zen	Z:\AntonioP_elltier1\CelllinesImaging\MitoSysPipelines\170419_MAD2L1gfpcM11-F11\MitoSys2\LSM\DE_W0026_P0001\DE_2_W0026_P0001_T0009\TR1_W0001_P0006\TR1_5_W0001_P0006_T0040_R1_P4_K1_Ch2.zen	FA/ISS	20000	30	1	x	1	0	0	29.94	100000	2000	Scale	0	2.393	0	0.01	0	0	0.01	0	0	1	1	0	1	13.698	0	0	1	13.698	0	0.8776	1	1	0.6227	1	1	1	1	1	0.5108	1	1	0.083361	0.059849	0	0	0	0	1.3032	1.3266	0	0	0	0	0	two-component anomalous diffusion with fluorescent protein-like blinking	11	0	0	1.0406947351	0.9898301123	0	0	0	0	N	13.270091729	10	10	thetaT	0.1975832916	0.2	0.2	tauT	100	100	100	f1	0.7984495561	1	1	tauD1	505.3552748755	500	500	alpha1	1.1964554101	1	1	tauD2	7825.1846789345	5000	5000	alpha2	0.9981324761	1	1	kappa	5.5	5.5	5.5	offset	0	0	0		0	0	0		0	0	0		0	0	0		0	0	0		0	0	0		0	0	0		0	0	0		0	0	0		0	0	0		0	0	0		0	0	0		0	0	0		0	0	0		0	0	0		0	0	0
98	TR1_5_W0001_P0006_T0040_R1_P5_K1_Ch2.zen	Z:\AntonioP_elltier1\CelllinesImaging\MitoSysPipelines\170419_MAD2L1gfpcM11-F11\MitoSys2\LSM\DE_W0026_P0001\DE_2_W0026_P0001_T0009\TR1_W0001_P0006\TR1_5_W0001_P0006_T0040_R1_P5_K1_Ch2.zen	FA/ISS	20000	30	1		1	0	0	29.94	100000	2000	Scale	0	2.393	0	0.01	0	0	0.01	0	0	1	1	0	1	73.842	0	0	1	73.842	0	1.0283	1	1	0.9359	1	1	1	1	1	0.9632	1	1	0.028207	0.00094466	0	0	0	0	2.0701	0.068051	0	0	0	0	0	two-component anomalous diffusion with fluorescent protein-like blinking	11	0	0	0.8814322036	0.9964429401	0	0	0	0	N	37.1700459546	10	10	thetaT	0.1621443284	0.2	0.2	tauT	100	100	100	f1	0.9468612424	1	1	tauD1	558.7480463423	500	500	alpha1	0.9500673295	1	1	tauD2	3370.6636254988	5000	5000	alpha2	0.5732823786	1	1	kappa	5.5	5.5	5.5	offset	0	0	0		0	0	0		0	0	0		0	0	0		0	0	0		0	0	0		0	0	0		0	0	0		0	0	0		0	0	0		0	0	0		0	0	0		0	0	0		0	0	0		0	0	0		0	0	0
99	TR1_5_W0001_P0006_T0040_R1_P6_K1_Ch2.zen	Z:\AntonioP_elltier1\CelllinesImaging\MitoSysPipelines\170419_MAD2L1gfpcM11-F11\MitoSys2\LSM\DE_W0026_P0001\DE_2_W0026_P0001_T0009\TR1_W0001_P0006\TR1_5_W0001_P0006_T0040_R1_P6_K1_Ch2.zen	FA/ISS	20000	30	1		1	0	0	29.94	100000	2000	Scale	0	2.393	0	0.01	0	0	0.01	0	0	1	1	0	1	52.519	0	0	1	52.519	0	1.2393	1	1	0.9088	1	1	1	1	1	1.1353	1	1	0.028973	0.011113	0	0	0	0	1.511	0.57288	0	0	0	0	0	two-component anomalous diffusion with fluorescent protein-like blinking	11	0	0	1.6820051564	0.9960950787	0	0	0	0	N	35.4359376586	10	10	thetaT	0.2213048704	0.2	0.2	tauT	100	100	100	f1	0.935040444	1	1	tauD1	441.0657800459	500	500	alpha1	1.1120245367	1	1	tauD2	6121.4946341775	5000	5000	alpha2	1.4801748257	1	1	kappa	5.5	5.5	5.5	offset	0	0	0		0	0	0		0	0	0		0	0	0		0	0	0		0	0	0		0	0	0		0	0	0		0	0	0		0	0	0		0	0	0		0	0	0		0	0	0		0	0	0		0	0	0		0	0	0
100	TR1_5_W0001_P0001_T0040_R1_P1_K1_Ch2.zen	Z:\AntonioP_elltier1\CelllinesImaging\MitoSysPipelines\170419_MAD2L1gfpcM11-F11\MitoSys2\LSM\DE_W0029_P0001\DE_2_W0029_P0001_T0003\TR1_W0001_P0001\TR1_5_W0001_P0001_T0040_R1_P1_K1_Ch2.zen	FA/ISS	20000	30	1		1	0	0	29.94	100000	2000	Scale	0	2.393	0	0.01	0	0	0.01	0	0	1	1	0	1	79.3	0	0	1	79.3	0	1.0213	1	1	0.9405	1	1	1	1	1	0.9612	1	1	0.022628	0.0021978	0	0	0	0	1.795	0.18696	0	0	0	0	0	two-component anomalous diffusion with fluorescent protein-like blinking	11	0	0	0.9774256549	0.9976163122	0	0	0	0	N	45.5608579971	10	10	thetaT	0.1750203727	0.2	0.2	tauT	100	100	100	f1	0.9375791721	1	1	tauD1	660.8711092551	500	500	alpha1	1.1558368934	1	1	tauD2	18773.4796462579	5000	5000	alpha2	1.5802296738	1	1	kappa	5.5	5.5	5.5	offset	0	0	0		0	0	0		0	0	0		0	0	0		0	0	0		0	0	0		0	0	0		0	0	0		0	0	0		0	0	0		0	0	0		0	0	0		0	0	0		0	0	0		0	0	0		0	0	0
101	TR1_5_W0001_P0001_T0040_R1_P2_K1_Ch2.zen	Z:\AntonioP_elltier1\CelllinesImaging\MitoSysPipelines\170419_MAD2L1gfpcM11-F11\MitoSys2\LSM\DE_W0029_P0001\DE_2_W0029_P0001_T0003\TR1_W0001_P0001\TR1_5_W0001_P0001_T0040_R1_P2_K1_Ch2.zen	FA/ISS	20000	30	1		1	0	0	29.94	100000	2000	Scale	0	2.393	0	0.01	0	0	0.01	0	0	1	1	0	1	37.526	0	0	1	37.526	0	0.9985	1	1	0.8765	1	1	1	1	1	0.8751	1	1	0.047414	0.0054255	0	0	0	0	1.7793	0.20483	0	0	0	0	0	two-component anomalous diffusion with fluorescent protein-like blinking	11	0	0	1.0896492953	0.9967653828	0	0	0	0	N	21.7302769861	10	10	thetaT	0.1650519102	0.2	0.2	tauT	100	100	100	f1	0.8399274162	1	1	tauD1	1105.2942278508	500	500	alpha1	1.1999983023	1	1	tauD2	16691.7338542311	5000	5000	alpha2	1.4318263305	1	1	kappa	5.5	5.5	5.5	offset	0	0	0		0	0	0		0	0	0		0	0	0		0	0	0		0	0	0		0	0	0		0	0	0		0	0	0		0	0	0		0	0	0		0	0	0		0	0	0		0	0	0		0	0	0		0	0	0
102	TR1_5_W0001_P0001_T0040_R1_P3_K1_Ch2.zen	Z:\AntonioP_elltier1\CelllinesImaging\MitoSysPipelines\170419_MAD2L1gfpcM11-F11\MitoSys2\LSM\DE_W0029_P0001\DE_2_W0029_P0001_T0003\TR1_W0001_P0001\TR1_5_W0001_P0001_T0040_R1_P3_K1_Ch2.zen	FA/ISS	20000	30	1		1	0	0	29.94	100000	2000	Scale	0	2.393	0	0.01	0	0	0.01	0	0	1	1	0	1	78.332	0	0	1	78.332	0	1.0524	1	1	0.9398	1	1	1	1	1	0.9906	1	1	0.022608	0.0016991	0	0	0	0	1.7698	0.13814	0	0	0	0	0	two-component anomalous diffusion with fluorescent protein-like blinking	11	0	0	0.7322947673	0.9975688635	0	0	0	0	N	42.8357457106	10	10	thetaT	0.1948061627	0.2	0.2	tauT	100	100	100	f1	0.9070497297	1	1	tauD1	577.7120277996	500	500	alpha1	1.1999985874	1	1	tauD2	16536.4896551329	5000	5000	alpha2	1.7141066076	1	1	kappa	5.5	5.5	5.5	offset	0	0	0		0	0	0		0	0	0		0	0	0		0	0	0		0	0	0		0	0	0		0	0	0		0	0	0		0	0	0		0	0	0		0	0	0		0	0	0		0	0	0		0	0	0		0	0	0
103	TR1_5_W0001_P0001_T0040_R1_P4_K1_Ch2.zen	Z:\AntonioP_elltier1\CelllinesImaging\MitoSysPipelines\170419_MAD2L1gfpcM11-F11\MitoSys2\LSM\DE_W0029_P0001\DE_2_W0029_P0001_T0003\TR1_W0001_P0001\TR1_5_W0001_P0001_T0040_R1_P4_K1_Ch2.zen	FA/ISS	20000	30	1		1	0	0	29.94	100000	2000	Scale	0	2.393	0	0.01	0	0	0.01	0	0	1	1	0	1	73.028	0	0	1	73.028	0	0.7543	1	1	0.9355	1	1	1	1	1	0.6976	1	1	0.037206	0.0036972	0	0	0	0	2.7326	0.27775	0	0	0	0	0	two-component anomalous diffusion with fluorescent protein-like blinking	11	0	0	0.6901854398	0.9990415073	0	0	0	0	N	26.3292398008	10	10	thetaT	0.2018440043	0.2	0.2	tauT	100	100	100	f1	0.9710673375	1	1	tauD1	522.9151064795	500	500	alpha1	1.0136438013	1	1	tauD2	1535.8525459426	5000	5000	alpha2	1.1089584166	1	1	kappa	5.5	5.5	5.5	offset	0	0	0		0	0	0		0	0	0		0	0	0		0	0	0		0	0	0		0	0	0		0	0	0		0	0	0		0	0	0		0	0	0		0	0	0		0	0	0		0	0	0		0	0	0		0	0	0
104	TR1_5_W0001_P0001_T0040_R1_P5_K1_Ch2.zen	Z:\AntonioP_elltier1\CelllinesImaging\MitoSysPipelines\170419_MAD2L1gfpcM11-F11\MitoSys2\LSM\DE_W0029_P0001\DE_2_W0029_P0001_T0003\TR1_W0001_P0001\TR1_5_W0001_P0001_T0040_R1_P5_K1_Ch2.zen	FA/ISS	20000	30	1	x	1	0	0	29.94	100000	2000	Scale	0	2.393	0	0.01	0	0	0.01	0	0	1	1	0	1	12.414	0	0	1	12.414	0	1.0154	1	1	0.6514	1	1	1	1	1	0.6637	1	1	-0.00097861	0.012035	0	0	0	0	-0.013939	0.14859	0	0	0	0	0	two-component anomalous diffusion with fluorescent protein-like blinking	11	0	0	0.9021196183	0.3894629816	0	0	0	0	N	174.4895441977	10	10	thetaT	0.1286968616	0.2	0.2	tauT	100	100	100	f1	0.6323014754	1	1	tauD1	2135.2436759992	500	500	alpha1	1.1901712262	1	1	tauD2	46821.3626228311	5000	5000	alpha2	1.4145315244	1	1	kappa	5.5	5.5	5.5	offset	0	0	0		0	0	0		0	0	0		0	0	0		0	0	0		0	0	0		0	0	0		0	0	0		0	0	0		0	0	0		0	0	0		0	0	0		0	0	0		0	0	0		0	0	0		0	0	0
105	TR1_5_W0001_P0001_T0040_R1_P6_K1_Ch2.zen	Z:\AntonioP_elltier1\CelllinesImaging\MitoSysPipelines\170419_MAD2L1gfpcM11-F11\MitoSys2\LSM\DE_W0029_P0001\DE_2_W0029_P0001_T0003\TR1_W0001_P0001\TR1_5_W0001_P0001_T0040_R1_P6_K1_Ch2.zen	FA/ISS	20000	30	1		1	0	0	29.94	100000	2000	Scale	0	2.393	0	0.01	0	0	0.01	0	0	1	1	0	1	65.041	0	0	1	65.041	0	1.0191	1	1	0.9278	1	1	1	1	1	0.9463	1	1	0.029142	0.0012956	0	0	0	0	1.8961	0.078119	0	0	0	0	0	two-component anomalous diffusion with fluorescent protein-like blinking	11	0	0	0.7681289252	0.9972639053	0	0	0	0	N	33.1351445112	10	10	thetaT	0.235173821	0.2	0.2	tauT	100	100	100	f1	0.9395657683	1	1	tauD1	515.417510521	500	500	alpha1	1.048836269	1	1	tauD2	21686.193240245	5000	5000	alpha2	1.5678366256	1	1	kappa	5.5	5.5	5.5	offset	0	0	0		0	0	0		0	0	0		0	0	0		0	0	0		0	0	0		0	0	0		0	0	0		0	0	0		0	0	0		0	0	0		0	0	0		0	0	0		0	0	0		0	0	0		0	0	0
